(kicad_symbol_lib (version 20220914) (generator kicad_symbol_editor)
  (symbol "nRF51x22-QFxx" (in_bom yes) (on_board yes)
    (property "Reference" "U" (at 0 2.54 0)
      (effects (font (size 1.27 1.27)))
    )
    (property "Value" "nRF51x22-QFxx" (at 0 -2.54 0)
      (effects (font (size 1.27 1.27)))
    )
    (property "Footprint" "Package_DFN_QFN:QFN-48-1EP_6x6mm_P0.4mm_EP4.6x4.6mm" (at 0 0 0)
      (effects (font (size 1.27 1.27)) hide)
    )
    (property "Datasheet" "http://infocenter.nordicsemi.com/pdf/nRF51822_PS_v3.3.pdf" (at -10.16 -2.54 0)
      (effects (font (size 1.27 1.27)) hide)
    )
    (property "ki_keywords" "MCU ARM BLE 2.4GHz" (at 0 0 0)
      (effects (font (size 1.27 1.27)) hide)
    )
    (property "ki_description" "Multiprotocol BLE/2.4GHz Cortex-M0+ SoC" (at 0 0 0)
      (effects (font (size 1.27 1.27)) hide)
    )
    (property "ki_fp_filters" "QFN*1EP*6x6mm*P0.4mm*" (at 0 0 0)
      (effects (font (size 1.27 1.27)) hide)
    )
    (symbol "nRF51x22-QFxx_0_1"
      (rectangle (start -20.32 43.18) (end 20.32 -43.18)
        (stroke (width 0.254) (type default))
        (fill (type background))
      )
    )
    (symbol "nRF51x22-QFxx_1_1"
      (pin power_in line (at 0 45.72 270) (length 2.54)
        (name "VDD" (effects (font (size 1.27 1.27))))
        (number "1" (effects (font (size 1.27 1.27))))
      )
      (pin bidirectional line (at 22.86 22.86 180) (length 2.54)
        (name "P0.6" (effects (font (size 1.27 1.27))))
        (number "10" (effects (font (size 1.27 1.27))))
      )
      (pin bidirectional line (at 22.86 20.32 180) (length 2.54)
        (name "P0.7" (effects (font (size 1.27 1.27))))
        (number "11" (effects (font (size 1.27 1.27))))
      )
      (pin passive line (at 0 45.72 270) (length 2.54) hide
        (name "VDD" (effects (font (size 1.27 1.27))))
        (number "12" (effects (font (size 1.27 1.27))))
      )
      (pin power_in line (at 0 -45.72 90) (length 2.54)
        (name "VSS" (effects (font (size 1.27 1.27))))
        (number "13" (effects (font (size 1.27 1.27))))
      )
      (pin bidirectional line (at 22.86 17.78 180) (length 2.54)
        (name "P0.8" (effects (font (size 1.27 1.27))))
        (number "14" (effects (font (size 1.27 1.27))))
      )
      (pin bidirectional line (at 22.86 15.24 180) (length 2.54)
        (name "P0.9" (effects (font (size 1.27 1.27))))
        (number "15" (effects (font (size 1.27 1.27))))
      )
      (pin bidirectional line (at 22.86 12.7 180) (length 2.54)
        (name "P0.10" (effects (font (size 1.27 1.27))))
        (number "16" (effects (font (size 1.27 1.27))))
      )
      (pin bidirectional line (at 22.86 10.16 180) (length 2.54)
        (name "P0.11" (effects (font (size 1.27 1.27))))
        (number "17" (effects (font (size 1.27 1.27))))
      )
      (pin bidirectional line (at 22.86 7.62 180) (length 2.54)
        (name "P0.12" (effects (font (size 1.27 1.27))))
        (number "18" (effects (font (size 1.27 1.27))))
      )
      (pin bidirectional line (at 22.86 5.08 180) (length 2.54)
        (name "P0.13" (effects (font (size 1.27 1.27))))
        (number "19" (effects (font (size 1.27 1.27))))
      )
      (pin power_out line (at 12.7 45.72 270) (length 2.54)
        (name "DCC" (effects (font (size 1.27 1.27))))
        (number "2" (effects (font (size 1.27 1.27))))
      )
      (pin bidirectional line (at 22.86 2.54 180) (length 2.54)
        (name "P0.14" (effects (font (size 1.27 1.27))))
        (number "20" (effects (font (size 1.27 1.27))))
      )
      (pin bidirectional line (at 22.86 -2.54 180) (length 2.54)
        (name "P0.15" (effects (font (size 1.27 1.27))))
        (number "21" (effects (font (size 1.27 1.27))))
      )
      (pin bidirectional line (at 22.86 -5.08 180) (length 2.54)
        (name "P0.16" (effects (font (size 1.27 1.27))))
        (number "22" (effects (font (size 1.27 1.27))))
      )
      (pin bidirectional line (at -22.86 -25.4 0) (length 2.54)
        (name "SWDIO/~{RST}" (effects (font (size 1.27 1.27))))
        (number "23" (effects (font (size 1.27 1.27))))
      )
      (pin input line (at -22.86 -27.94 0) (length 2.54)
        (name "SWDCLK" (effects (font (size 1.27 1.27))))
        (number "24" (effects (font (size 1.27 1.27))))
      )
      (pin bidirectional line (at 22.86 -7.62 180) (length 2.54)
        (name "P0.17" (effects (font (size 1.27 1.27))))
        (number "25" (effects (font (size 1.27 1.27))))
      )
      (pin bidirectional line (at 22.86 -10.16 180) (length 2.54)
        (name "P0.18" (effects (font (size 1.27 1.27))))
        (number "26" (effects (font (size 1.27 1.27))))
      )
      (pin bidirectional line (at 22.86 -12.7 180) (length 2.54)
        (name "P0.19" (effects (font (size 1.27 1.27))))
        (number "27" (effects (font (size 1.27 1.27))))
      )
      (pin bidirectional line (at 22.86 -15.24 180) (length 2.54)
        (name "P0.20" (effects (font (size 1.27 1.27))))
        (number "28" (effects (font (size 1.27 1.27))))
      )
      (pin passive line (at -5.08 45.72 270) (length 2.54)
        (name "DEC2" (effects (font (size 1.27 1.27))))
        (number "29" (effects (font (size 1.27 1.27))))
      )
      (pin bidirectional line (at 22.86 -40.64 180) (length 2.54)
        (name "P0.30" (effects (font (size 1.27 1.27))))
        (number "3" (effects (font (size 1.27 1.27))))
      )
      (pin power_out line (at 2.54 45.72 270) (length 2.54)
        (name "VDD_PA" (effects (font (size 1.27 1.27))))
        (number "30" (effects (font (size 1.27 1.27))))
      )
      (pin output line (at -22.86 30.48 0) (length 2.54)
        (name "ANT1" (effects (font (size 1.27 1.27))))
        (number "31" (effects (font (size 1.27 1.27))))
      )
      (pin output line (at -22.86 25.4 0) (length 2.54)
        (name "ANT2" (effects (font (size 1.27 1.27))))
        (number "32" (effects (font (size 1.27 1.27))))
      )
      (pin passive line (at 0 -45.72 90) (length 2.54) hide
        (name "VSS" (effects (font (size 1.27 1.27))))
        (number "33" (effects (font (size 1.27 1.27))))
      )
      (pin passive line (at 0 -45.72 90) (length 2.54) hide
        (name "VSS" (effects (font (size 1.27 1.27))))
        (number "34" (effects (font (size 1.27 1.27))))
      )
      (pin power_in line (at 7.62 45.72 270) (length 2.54)
        (name "AVDD" (effects (font (size 1.27 1.27))))
        (number "35" (effects (font (size 1.27 1.27))))
      )
      (pin passive line (at 7.62 45.72 270) (length 2.54) hide
        (name "AVDD" (effects (font (size 1.27 1.27))))
        (number "36" (effects (font (size 1.27 1.27))))
      )
      (pin input line (at -22.86 7.62 0) (length 2.54)
        (name "XC1" (effects (font (size 1.27 1.27))))
        (number "37" (effects (font (size 1.27 1.27))))
      )
      (pin input line (at -22.86 -7.62 0) (length 2.54)
        (name "XC2" (effects (font (size 1.27 1.27))))
        (number "38" (effects (font (size 1.27 1.27))))
      )
      (pin passive line (at -7.62 45.72 270) (length 2.54)
        (name "DEC1" (effects (font (size 1.27 1.27))))
        (number "39" (effects (font (size 1.27 1.27))))
      )
      (pin bidirectional line (at 22.86 38.1 180) (length 2.54)
        (name "P0.0" (effects (font (size 1.27 1.27))))
        (number "4" (effects (font (size 1.27 1.27))))
      )
      (pin bidirectional line (at 22.86 -17.78 180) (length 2.54)
        (name "P0.21" (effects (font (size 1.27 1.27))))
        (number "40" (effects (font (size 1.27 1.27))))
      )
      (pin bidirectional line (at 22.86 -20.32 180) (length 2.54)
        (name "P0.22" (effects (font (size 1.27 1.27))))
        (number "41" (effects (font (size 1.27 1.27))))
      )
      (pin bidirectional line (at 22.86 -22.86 180) (length 2.54)
        (name "P0.23" (effects (font (size 1.27 1.27))))
        (number "42" (effects (font (size 1.27 1.27))))
      )
      (pin bidirectional line (at 22.86 -25.4 180) (length 2.54)
        (name "P0.24" (effects (font (size 1.27 1.27))))
        (number "43" (effects (font (size 1.27 1.27))))
      )
      (pin bidirectional line (at 22.86 -27.94 180) (length 2.54)
        (name "P0.25" (effects (font (size 1.27 1.27))))
        (number "44" (effects (font (size 1.27 1.27))))
      )
      (pin bidirectional line (at 22.86 -30.48 180) (length 2.54)
        (name "P0.26" (effects (font (size 1.27 1.27))))
        (number "45" (effects (font (size 1.27 1.27))))
      )
      (pin bidirectional line (at 22.86 -33.02 180) (length 2.54)
        (name "P0.27" (effects (font (size 1.27 1.27))))
        (number "46" (effects (font (size 1.27 1.27))))
      )
      (pin bidirectional line (at 22.86 -35.56 180) (length 2.54)
        (name "P0.28" (effects (font (size 1.27 1.27))))
        (number "47" (effects (font (size 1.27 1.27))))
      )
      (pin bidirectional line (at 22.86 -38.1 180) (length 2.54)
        (name "P0.29" (effects (font (size 1.27 1.27))))
        (number "48" (effects (font (size 1.27 1.27))))
      )
      (pin power_in line (at 2.54 -45.72 90) (length 2.54)
        (name "EP" (effects (font (size 1.27 1.27))))
        (number "49" (effects (font (size 1.27 1.27))))
      )
      (pin bidirectional line (at 22.86 35.56 180) (length 2.54)
        (name "P0.1" (effects (font (size 1.27 1.27))))
        (number "5" (effects (font (size 1.27 1.27))))
      )
      (pin bidirectional line (at 22.86 33.02 180) (length 2.54)
        (name "P0.2" (effects (font (size 1.27 1.27))))
        (number "6" (effects (font (size 1.27 1.27))))
      )
      (pin bidirectional line (at 22.86 30.48 180) (length 2.54)
        (name "P0.3" (effects (font (size 1.27 1.27))))
        (number "7" (effects (font (size 1.27 1.27))))
      )
      (pin bidirectional line (at 22.86 27.94 180) (length 2.54)
        (name "P0.4" (effects (font (size 1.27 1.27))))
        (number "8" (effects (font (size 1.27 1.27))))
      )
      (pin bidirectional line (at 22.86 25.4 180) (length 2.54)
        (name "P0.5" (effects (font (size 1.27 1.27))))
        (number "9" (effects (font (size 1.27 1.27))))
      )
    )
  )
  (symbol "nRF52810-QCxx" (in_bom yes) (on_board yes)
    (property "Reference" "U" (at 0 1.27 0)
      (effects (font (size 1.27 1.27)))
    )
    (property "Value" "nRF52810-QCxx" (at 0 -1.27 0)
      (effects (font (size 1.27 1.27)))
    )
    (property "Footprint" "Package_DFN_QFN:QFN-32-1EP_5x5mm_P0.5mm_EP3.6x3.6mm" (at 0 -34.29 0)
      (effects (font (size 1.27 1.27)) hide)
    )
    (property "Datasheet" "http://infocenter.nordicsemi.com/pdf/nRF52810_PS_v1.1.pdf" (at -12.7 5.08 0)
      (effects (font (size 1.27 1.27)) hide)
    )
    (property "ki_keywords" "MCU ARM BLE 2.4GHz" (at 0 0 0)
      (effects (font (size 1.27 1.27)) hide)
    )
    (property "ki_description" "Multiprotocol BLE/2.4GHz Cortex-M4 SoC, QFN-32" (at 0 0 0)
      (effects (font (size 1.27 1.27)) hide)
    )
    (property "ki_fp_filters" "QFN*1EP*5x5mm*P0.5mm*" (at 0 0 0)
      (effects (font (size 1.27 1.27)) hide)
    )
    (symbol "nRF52810-QCxx_0_1"
      (rectangle (start -20.32 22.86) (end 20.32 -22.86)
        (stroke (width 0.254) (type default))
        (fill (type background))
      )
    )
    (symbol "nRF52810-QCxx_1_1"
      (pin passive line (at -12.7 25.4 270) (length 2.54)
        (name "DEC1" (effects (font (size 1.27 1.27))))
        (number "1" (effects (font (size 1.27 1.27))))
      )
      (pin bidirectional line (at 22.86 0 180) (length 2.54)
        (name "P0.12" (effects (font (size 1.27 1.27))))
        (number "10" (effects (font (size 1.27 1.27))))
      )
      (pin bidirectional line (at 22.86 -2.54 180) (length 2.54)
        (name "P0.14" (effects (font (size 1.27 1.27))))
        (number "11" (effects (font (size 1.27 1.27))))
      )
      (pin bidirectional line (at 22.86 -5.08 180) (length 2.54)
        (name "P0.15" (effects (font (size 1.27 1.27))))
        (number "12" (effects (font (size 1.27 1.27))))
      )
      (pin bidirectional line (at 22.86 -7.62 180) (length 2.54)
        (name "P0.16" (effects (font (size 1.27 1.27))))
        (number "13" (effects (font (size 1.27 1.27))))
      )
      (pin bidirectional line (at 22.86 -10.16 180) (length 2.54)
        (name "P0.18" (effects (font (size 1.27 1.27))))
        (number "14" (effects (font (size 1.27 1.27))))
      )
      (pin bidirectional line (at 22.86 -12.7 180) (length 2.54)
        (name "P0.20" (effects (font (size 1.27 1.27))))
        (number "15" (effects (font (size 1.27 1.27))))
      )
      (pin bidirectional line (at -22.86 -15.24 0) (length 2.54)
        (name "P0.21/~{RESET}" (effects (font (size 1.27 1.27))))
        (number "16" (effects (font (size 1.27 1.27))))
      )
      (pin input line (at -22.86 -17.78 0) (length 2.54)
        (name "SWDCLK" (effects (font (size 1.27 1.27))))
        (number "17" (effects (font (size 1.27 1.27))))
      )
      (pin bidirectional line (at -22.86 -20.32 0) (length 2.54)
        (name "SWDIO" (effects (font (size 1.27 1.27))))
        (number "18" (effects (font (size 1.27 1.27))))
      )
      (pin passive line (at -22.86 17.78 0) (length 2.54)
        (name "ANT" (effects (font (size 1.27 1.27))))
        (number "19" (effects (font (size 1.27 1.27))))
      )
      (pin bidirectional line (at 22.86 17.78 180) (length 2.54)
        (name "P0.00/XL1" (effects (font (size 1.27 1.27))))
        (number "2" (effects (font (size 1.27 1.27))))
      )
      (pin power_in line (at 0 -25.4 90) (length 2.54)
        (name "VSS" (effects (font (size 1.27 1.27))))
        (number "20" (effects (font (size 1.27 1.27))))
      )
      (pin passive line (at -10.16 25.4 270) (length 2.54)
        (name "DEC2" (effects (font (size 1.27 1.27))))
        (number "21" (effects (font (size 1.27 1.27))))
      )
      (pin passive line (at -7.62 25.4 270) (length 2.54)
        (name "DEC3" (effects (font (size 1.27 1.27))))
        (number "22" (effects (font (size 1.27 1.27))))
      )
      (pin input line (at -22.86 5.08 0) (length 2.54)
        (name "XC1" (effects (font (size 1.27 1.27))))
        (number "23" (effects (font (size 1.27 1.27))))
      )
      (pin input line (at -22.86 -5.08 0) (length 2.54)
        (name "XC2" (effects (font (size 1.27 1.27))))
        (number "24" (effects (font (size 1.27 1.27))))
      )
      (pin passive line (at 0 25.4 270) (length 2.54) hide
        (name "VDD" (effects (font (size 1.27 1.27))))
        (number "25" (effects (font (size 1.27 1.27))))
      )
      (pin bidirectional line (at 22.86 -15.24 180) (length 2.54)
        (name "P0.25" (effects (font (size 1.27 1.27))))
        (number "26" (effects (font (size 1.27 1.27))))
      )
      (pin bidirectional line (at 22.86 -17.78 180) (length 2.54)
        (name "P0.28/AIN4" (effects (font (size 1.27 1.27))))
        (number "27" (effects (font (size 1.27 1.27))))
      )
      (pin bidirectional line (at 22.86 -20.32 180) (length 2.54)
        (name "P0.30/AIN6" (effects (font (size 1.27 1.27))))
        (number "28" (effects (font (size 1.27 1.27))))
      )
      (pin passive line (at 0 -25.4 90) (length 2.54) hide
        (name "VSS" (effects (font (size 1.27 1.27))))
        (number "29" (effects (font (size 1.27 1.27))))
      )
      (pin bidirectional line (at 22.86 15.24 180) (length 2.54)
        (name "P0.01/XL2" (effects (font (size 1.27 1.27))))
        (number "3" (effects (font (size 1.27 1.27))))
      )
      (pin passive line (at -5.08 25.4 270) (length 2.54)
        (name "DEC4" (effects (font (size 1.27 1.27))))
        (number "30" (effects (font (size 1.27 1.27))))
      )
      (pin power_out line (at 5.08 25.4 270) (length 2.54)
        (name "DCC" (effects (font (size 1.27 1.27))))
        (number "31" (effects (font (size 1.27 1.27))))
      )
      (pin passive line (at 0 25.4 270) (length 2.54) hide
        (name "VDD" (effects (font (size 1.27 1.27))))
        (number "32" (effects (font (size 1.27 1.27))))
      )
      (pin passive line (at 0 -25.4 90) (length 2.54) hide
        (name "VSS" (effects (font (size 1.27 1.27))))
        (number "33" (effects (font (size 1.27 1.27))))
      )
      (pin bidirectional line (at 22.86 12.7 180) (length 2.54)
        (name "P0.04/AIN2" (effects (font (size 1.27 1.27))))
        (number "4" (effects (font (size 1.27 1.27))))
      )
      (pin bidirectional line (at 22.86 10.16 180) (length 2.54)
        (name "P0.05/AIN3" (effects (font (size 1.27 1.27))))
        (number "5" (effects (font (size 1.27 1.27))))
      )
      (pin bidirectional line (at 22.86 7.62 180) (length 2.54)
        (name "P0.06" (effects (font (size 1.27 1.27))))
        (number "6" (effects (font (size 1.27 1.27))))
      )
      (pin bidirectional line (at 22.86 5.08 180) (length 2.54)
        (name "P0.09" (effects (font (size 1.27 1.27))))
        (number "7" (effects (font (size 1.27 1.27))))
      )
      (pin bidirectional line (at 22.86 2.54 180) (length 2.54)
        (name "P0.10" (effects (font (size 1.27 1.27))))
        (number "8" (effects (font (size 1.27 1.27))))
      )
      (pin power_in line (at 0 25.4 270) (length 2.54)
        (name "VDD" (effects (font (size 1.27 1.27))))
        (number "9" (effects (font (size 1.27 1.27))))
      )
    )
  )
  (symbol "nRF52810-QFxx" (in_bom yes) (on_board yes)
    (property "Reference" "U" (at 0 1.27 0)
      (effects (font (size 1.27 1.27)))
    )
    (property "Value" "nRF52810-QFxx" (at 0 -1.27 0)
      (effects (font (size 1.27 1.27)))
    )
    (property "Footprint" "Package_DFN_QFN:QFN-48-1EP_6x6mm_P0.4mm_EP4.6x4.6mm" (at 0 -52.07 0)
      (effects (font (size 1.27 1.27)) hide)
    )
    (property "Datasheet" "http://infocenter.nordicsemi.com/pdf/nRF52810_PS_v1.1.pdf" (at -12.7 5.08 0)
      (effects (font (size 1.27 1.27)) hide)
    )
    (property "ki_keywords" "MCU ARM BLE 2.4GHz" (at 0 0 0)
      (effects (font (size 1.27 1.27)) hide)
    )
    (property "ki_description" "Multiprotocol BLE/2.4GHz Cortex-M4 SoC, QFN-48" (at 0 0 0)
      (effects (font (size 1.27 1.27)) hide)
    )
    (property "ki_fp_filters" "QFN*1EP*6x6mm*P0.4mm*" (at 0 0 0)
      (effects (font (size 1.27 1.27)) hide)
    )
    (symbol "nRF52810-QFxx_0_1"
      (rectangle (start -20.32 40.64) (end 20.32 -40.64)
        (stroke (width 0.254) (type default))
        (fill (type background))
      )
    )
    (symbol "nRF52810-QFxx_1_1"
      (pin passive line (at -12.7 43.18 270) (length 2.54)
        (name "DEC1" (effects (font (size 1.27 1.27))))
        (number "1" (effects (font (size 1.27 1.27))))
      )
      (pin bidirectional line (at 22.86 17.78 180) (length 2.54)
        (name "P0.08" (effects (font (size 1.27 1.27))))
        (number "10" (effects (font (size 1.27 1.27))))
      )
      (pin bidirectional line (at 22.86 15.24 180) (length 2.54)
        (name "P0.09" (effects (font (size 1.27 1.27))))
        (number "11" (effects (font (size 1.27 1.27))))
      )
      (pin bidirectional line (at 22.86 12.7 180) (length 2.54)
        (name "P0.10" (effects (font (size 1.27 1.27))))
        (number "12" (effects (font (size 1.27 1.27))))
      )
      (pin power_in line (at 0 43.18 270) (length 2.54)
        (name "VDD" (effects (font (size 1.27 1.27))))
        (number "13" (effects (font (size 1.27 1.27))))
      )
      (pin bidirectional line (at 22.86 10.16 180) (length 2.54)
        (name "P0.11" (effects (font (size 1.27 1.27))))
        (number "14" (effects (font (size 1.27 1.27))))
      )
      (pin bidirectional line (at 22.86 7.62 180) (length 2.54)
        (name "P0.12" (effects (font (size 1.27 1.27))))
        (number "15" (effects (font (size 1.27 1.27))))
      )
      (pin bidirectional line (at 22.86 5.08 180) (length 2.54)
        (name "P0.13" (effects (font (size 1.27 1.27))))
        (number "16" (effects (font (size 1.27 1.27))))
      )
      (pin bidirectional line (at 22.86 2.54 180) (length 2.54)
        (name "P0.14" (effects (font (size 1.27 1.27))))
        (number "17" (effects (font (size 1.27 1.27))))
      )
      (pin bidirectional line (at 22.86 0 180) (length 2.54)
        (name "P0.15" (effects (font (size 1.27 1.27))))
        (number "18" (effects (font (size 1.27 1.27))))
      )
      (pin bidirectional line (at 22.86 -2.54 180) (length 2.54)
        (name "P0.16" (effects (font (size 1.27 1.27))))
        (number "19" (effects (font (size 1.27 1.27))))
      )
      (pin bidirectional line (at 22.86 38.1 180) (length 2.54)
        (name "P0.00/XL1" (effects (font (size 1.27 1.27))))
        (number "2" (effects (font (size 1.27 1.27))))
      )
      (pin bidirectional line (at 22.86 -5.08 180) (length 2.54)
        (name "P0.17" (effects (font (size 1.27 1.27))))
        (number "20" (effects (font (size 1.27 1.27))))
      )
      (pin bidirectional line (at 22.86 -7.62 180) (length 2.54)
        (name "P0.18" (effects (font (size 1.27 1.27))))
        (number "21" (effects (font (size 1.27 1.27))))
      )
      (pin bidirectional line (at 22.86 -10.16 180) (length 2.54)
        (name "P0.19" (effects (font (size 1.27 1.27))))
        (number "22" (effects (font (size 1.27 1.27))))
      )
      (pin bidirectional line (at 22.86 -12.7 180) (length 2.54)
        (name "P0.20" (effects (font (size 1.27 1.27))))
        (number "23" (effects (font (size 1.27 1.27))))
      )
      (pin bidirectional line (at -22.86 -15.24 0) (length 2.54)
        (name "P0.21/~{RESET}" (effects (font (size 1.27 1.27))))
        (number "24" (effects (font (size 1.27 1.27))))
      )
      (pin input line (at -22.86 -17.78 0) (length 2.54)
        (name "SWDCLK" (effects (font (size 1.27 1.27))))
        (number "25" (effects (font (size 1.27 1.27))))
      )
      (pin bidirectional line (at -22.86 -20.32 0) (length 2.54)
        (name "SWDIO" (effects (font (size 1.27 1.27))))
        (number "26" (effects (font (size 1.27 1.27))))
      )
      (pin bidirectional line (at 22.86 -15.24 180) (length 2.54)
        (name "P0.22" (effects (font (size 1.27 1.27))))
        (number "27" (effects (font (size 1.27 1.27))))
      )
      (pin bidirectional line (at 22.86 -17.78 180) (length 2.54)
        (name "P0.23" (effects (font (size 1.27 1.27))))
        (number "28" (effects (font (size 1.27 1.27))))
      )
      (pin bidirectional line (at 22.86 -20.32 180) (length 2.54)
        (name "P0.24" (effects (font (size 1.27 1.27))))
        (number "29" (effects (font (size 1.27 1.27))))
      )
      (pin bidirectional line (at 22.86 35.56 180) (length 2.54)
        (name "P0.01/XL2" (effects (font (size 1.27 1.27))))
        (number "3" (effects (font (size 1.27 1.27))))
      )
      (pin passive line (at -22.86 17.78 0) (length 2.54)
        (name "ANT" (effects (font (size 1.27 1.27))))
        (number "30" (effects (font (size 1.27 1.27))))
      )
      (pin power_in line (at 0 -43.18 90) (length 2.54)
        (name "VSS" (effects (font (size 1.27 1.27))))
        (number "31" (effects (font (size 1.27 1.27))))
      )
      (pin passive line (at -10.16 43.18 270) (length 2.54)
        (name "DEC2" (effects (font (size 1.27 1.27))))
        (number "32" (effects (font (size 1.27 1.27))))
      )
      (pin passive line (at -7.62 43.18 270) (length 2.54)
        (name "DEC3" (effects (font (size 1.27 1.27))))
        (number "33" (effects (font (size 1.27 1.27))))
      )
      (pin input line (at -22.86 5.08 0) (length 2.54)
        (name "XC1" (effects (font (size 1.27 1.27))))
        (number "34" (effects (font (size 1.27 1.27))))
      )
      (pin input line (at -22.86 -5.08 0) (length 2.54)
        (name "XC2" (effects (font (size 1.27 1.27))))
        (number "35" (effects (font (size 1.27 1.27))))
      )
      (pin passive line (at 0 43.18 270) (length 2.54) hide
        (name "VDD" (effects (font (size 1.27 1.27))))
        (number "36" (effects (font (size 1.27 1.27))))
      )
      (pin bidirectional line (at 22.86 -22.86 180) (length 2.54)
        (name "P0.25" (effects (font (size 1.27 1.27))))
        (number "37" (effects (font (size 1.27 1.27))))
      )
      (pin bidirectional line (at 22.86 -25.4 180) (length 2.54)
        (name "P0.26" (effects (font (size 1.27 1.27))))
        (number "38" (effects (font (size 1.27 1.27))))
      )
      (pin bidirectional line (at 22.86 -27.94 180) (length 2.54)
        (name "P0.27" (effects (font (size 1.27 1.27))))
        (number "39" (effects (font (size 1.27 1.27))))
      )
      (pin bidirectional line (at 22.86 33.02 180) (length 2.54)
        (name "P0.02/AIN0" (effects (font (size 1.27 1.27))))
        (number "4" (effects (font (size 1.27 1.27))))
      )
      (pin bidirectional line (at 22.86 -30.48 180) (length 2.54)
        (name "P0.28/AIN4" (effects (font (size 1.27 1.27))))
        (number "40" (effects (font (size 1.27 1.27))))
      )
      (pin bidirectional line (at 22.86 -33.02 180) (length 2.54)
        (name "P0.29/AIN5" (effects (font (size 1.27 1.27))))
        (number "41" (effects (font (size 1.27 1.27))))
      )
      (pin bidirectional line (at 22.86 -35.56 180) (length 2.54)
        (name "P0.30/AIN6" (effects (font (size 1.27 1.27))))
        (number "42" (effects (font (size 1.27 1.27))))
      )
      (pin bidirectional line (at 22.86 -38.1 180) (length 2.54)
        (name "P0.31/AIN7" (effects (font (size 1.27 1.27))))
        (number "43" (effects (font (size 1.27 1.27))))
      )
      (pin no_connect line (at -20.32 -30.48 0) (length 2.54) hide
        (name "NC" (effects (font (size 1.27 1.27))))
        (number "44" (effects (font (size 1.27 1.27))))
      )
      (pin passive line (at 0 -43.18 90) (length 2.54) hide
        (name "VSS" (effects (font (size 1.27 1.27))))
        (number "45" (effects (font (size 1.27 1.27))))
      )
      (pin passive line (at -5.08 43.18 270) (length 2.54)
        (name "DEC4" (effects (font (size 1.27 1.27))))
        (number "46" (effects (font (size 1.27 1.27))))
      )
      (pin power_out line (at 5.08 43.18 270) (length 2.54)
        (name "DCC" (effects (font (size 1.27 1.27))))
        (number "47" (effects (font (size 1.27 1.27))))
      )
      (pin passive line (at 0 43.18 270) (length 2.54) hide
        (name "VDD" (effects (font (size 1.27 1.27))))
        (number "48" (effects (font (size 1.27 1.27))))
      )
      (pin passive line (at 0 -43.18 90) (length 2.54) hide
        (name "VSS" (effects (font (size 1.27 1.27))))
        (number "49" (effects (font (size 1.27 1.27))))
      )
      (pin bidirectional line (at 22.86 30.48 180) (length 2.54)
        (name "P0.03/AIN1" (effects (font (size 1.27 1.27))))
        (number "5" (effects (font (size 1.27 1.27))))
      )
      (pin bidirectional line (at 22.86 27.94 180) (length 2.54)
        (name "P0.04/AIN2" (effects (font (size 1.27 1.27))))
        (number "6" (effects (font (size 1.27 1.27))))
      )
      (pin bidirectional line (at 22.86 25.4 180) (length 2.54)
        (name "P0.05/AIN3" (effects (font (size 1.27 1.27))))
        (number "7" (effects (font (size 1.27 1.27))))
      )
      (pin bidirectional line (at 22.86 22.86 180) (length 2.54)
        (name "P0.06" (effects (font (size 1.27 1.27))))
        (number "8" (effects (font (size 1.27 1.27))))
      )
      (pin bidirectional line (at 22.86 20.32 180) (length 2.54)
        (name "P0.07" (effects (font (size 1.27 1.27))))
        (number "9" (effects (font (size 1.27 1.27))))
      )
    )
  )
  (symbol "nRF52811-QCxx" (in_bom yes) (on_board yes)
    (property "Reference" "U" (at 0 5.08 0)
      (effects (font (size 1.27 1.27)))
    )
    (property "Value" "nRF52811-QCxx" (at 0 2.54 0)
      (effects (font (size 1.27 1.27)))
    )
    (property "Footprint" "Package_DFN_QFN:QFN-32-1EP_5x5mm_P0.5mm_EP3.6x3.6mm_ThermalVias" (at 0 -38.1 0)
      (effects (font (size 1.27 1.27)) hide)
    )
    (property "Datasheet" "https://infocenter.nordicsemi.com/pdf/nRF52811_PS_v1.0.pdf" (at -16.51 48.26 0)
      (effects (font (size 1.27 1.27)) hide)
    )
    (property "ki_keywords" "MCU ARM BLE ANT 2.4GHz 802.15.4" (at 0 0 0)
      (effects (font (size 1.27 1.27)) hide)
    )
    (property "ki_description" "Multiprotocol BLE/ANT/2.4 GHz/802.15.4 Cortex-M4F SoC, QFN-32" (at 0 0 0)
      (effects (font (size 1.27 1.27)) hide)
    )
    (property "ki_fp_filters" "QFN*1EP*5x5mm*P0.5mm*" (at 0 0 0)
      (effects (font (size 1.27 1.27)) hide)
    )
    (symbol "nRF52811-QCxx_0_1"
      (rectangle (start -20.32 22.86) (end 20.32 -20.32)
        (stroke (width 0.254) (type default))
        (fill (type background))
      )
    )
    (symbol "nRF52811-QCxx_1_1"
      (pin passive line (at -15.24 25.4 270) (length 2.54)
        (name "DEC1" (effects (font (size 1.27 1.27))))
        (number "1" (effects (font (size 1.27 1.27))))
      )
      (pin bidirectional line (at 22.86 2.54 180) (length 2.54)
        (name "P0.12" (effects (font (size 1.27 1.27))))
        (number "10" (effects (font (size 1.27 1.27))))
      )
      (pin bidirectional line (at 22.86 0 180) (length 2.54)
        (name "P0.14" (effects (font (size 1.27 1.27))))
        (number "11" (effects (font (size 1.27 1.27))))
      )
      (pin bidirectional line (at 22.86 -2.54 180) (length 2.54)
        (name "P0.15" (effects (font (size 1.27 1.27))))
        (number "12" (effects (font (size 1.27 1.27))))
      )
      (pin bidirectional line (at 22.86 -5.08 180) (length 2.54)
        (name "P0.16" (effects (font (size 1.27 1.27))))
        (number "13" (effects (font (size 1.27 1.27))))
      )
      (pin bidirectional line (at 22.86 -7.62 180) (length 2.54)
        (name "P0.18" (effects (font (size 1.27 1.27))))
        (number "14" (effects (font (size 1.27 1.27))))
      )
      (pin bidirectional line (at 22.86 -10.16 180) (length 2.54)
        (name "P0.20" (effects (font (size 1.27 1.27))))
        (number "15" (effects (font (size 1.27 1.27))))
      )
      (pin bidirectional line (at -22.86 -12.7 0) (length 2.54)
        (name "P0.21/~{RESET}" (effects (font (size 1.27 1.27))))
        (number "16" (effects (font (size 1.27 1.27))))
      )
      (pin input line (at -22.86 -15.24 0) (length 2.54)
        (name "SWDCLK" (effects (font (size 1.27 1.27))))
        (number "17" (effects (font (size 1.27 1.27))))
      )
      (pin bidirectional line (at -22.86 -17.78 0) (length 2.54)
        (name "SWDIO" (effects (font (size 1.27 1.27))))
        (number "18" (effects (font (size 1.27 1.27))))
      )
      (pin passive line (at -22.86 15.24 0) (length 2.54)
        (name "ANT" (effects (font (size 1.27 1.27))))
        (number "19" (effects (font (size 1.27 1.27))))
      )
      (pin bidirectional line (at 22.86 20.32 180) (length 2.54)
        (name "XL1/P0.00" (effects (font (size 1.27 1.27))))
        (number "2" (effects (font (size 1.27 1.27))))
      )
      (pin power_in line (at 0 -22.86 90) (length 2.54)
        (name "VSS" (effects (font (size 1.27 1.27))))
        (number "20" (effects (font (size 1.27 1.27))))
      )
      (pin passive line (at -12.7 25.4 270) (length 2.54)
        (name "DEC2" (effects (font (size 1.27 1.27))))
        (number "21" (effects (font (size 1.27 1.27))))
      )
      (pin passive line (at -10.16 25.4 270) (length 2.54)
        (name "DEC3" (effects (font (size 1.27 1.27))))
        (number "22" (effects (font (size 1.27 1.27))))
      )
      (pin input line (at -22.86 5.08 0) (length 2.54)
        (name "XC1" (effects (font (size 1.27 1.27))))
        (number "23" (effects (font (size 1.27 1.27))))
      )
      (pin input line (at -22.86 -5.08 0) (length 2.54)
        (name "XC2" (effects (font (size 1.27 1.27))))
        (number "24" (effects (font (size 1.27 1.27))))
      )
      (pin power_in line (at -2.54 25.4 270) (length 2.54)
        (name "VDD" (effects (font (size 1.27 1.27))))
        (number "25" (effects (font (size 1.27 1.27))))
      )
      (pin bidirectional line (at 22.86 -12.7 180) (length 2.54)
        (name "P0.25" (effects (font (size 1.27 1.27))))
        (number "26" (effects (font (size 1.27 1.27))))
      )
      (pin bidirectional line (at 22.86 -15.24 180) (length 2.54)
        (name "AIN4/P0.28" (effects (font (size 1.27 1.27))))
        (number "27" (effects (font (size 1.27 1.27))))
      )
      (pin bidirectional line (at 22.86 -17.78 180) (length 2.54)
        (name "AIN6/P0.30" (effects (font (size 1.27 1.27))))
        (number "28" (effects (font (size 1.27 1.27))))
      )
      (pin passive line (at 0 -22.86 90) (length 2.54) hide
        (name "VSS" (effects (font (size 1.27 1.27))))
        (number "29" (effects (font (size 1.27 1.27))))
      )
      (pin bidirectional line (at 22.86 17.78 180) (length 2.54)
        (name "XL2/P0.01" (effects (font (size 1.27 1.27))))
        (number "3" (effects (font (size 1.27 1.27))))
      )
      (pin passive line (at -7.62 25.4 270) (length 2.54)
        (name "DEC4" (effects (font (size 1.27 1.27))))
        (number "30" (effects (font (size 1.27 1.27))))
      )
      (pin power_out line (at 7.62 25.4 270) (length 2.54)
        (name "DCC" (effects (font (size 1.27 1.27))))
        (number "31" (effects (font (size 1.27 1.27))))
      )
      (pin power_in line (at 2.54 25.4 270) (length 2.54)
        (name "VDD" (effects (font (size 1.27 1.27))))
        (number "32" (effects (font (size 1.27 1.27))))
      )
      (pin passive line (at 0 -22.86 90) (length 2.54) hide
        (name "VSS" (effects (font (size 1.27 1.27))))
        (number "33" (effects (font (size 1.27 1.27))))
      )
      (pin bidirectional line (at 22.86 15.24 180) (length 2.54)
        (name "AIN2/P0.04" (effects (font (size 1.27 1.27))))
        (number "4" (effects (font (size 1.27 1.27))))
      )
      (pin bidirectional line (at 22.86 12.7 180) (length 2.54)
        (name "AIN3/P0.05" (effects (font (size 1.27 1.27))))
        (number "5" (effects (font (size 1.27 1.27))))
      )
      (pin bidirectional line (at 22.86 10.16 180) (length 2.54)
        (name "P0.06" (effects (font (size 1.27 1.27))))
        (number "6" (effects (font (size 1.27 1.27))))
      )
      (pin bidirectional line (at 22.86 7.62 180) (length 2.54)
        (name "P0.09" (effects (font (size 1.27 1.27))))
        (number "7" (effects (font (size 1.27 1.27))))
      )
      (pin bidirectional line (at 22.86 5.08 180) (length 2.54)
        (name "P0.10" (effects (font (size 1.27 1.27))))
        (number "8" (effects (font (size 1.27 1.27))))
      )
      (pin power_in line (at 0 25.4 270) (length 2.54)
        (name "VDD" (effects (font (size 1.27 1.27))))
        (number "9" (effects (font (size 1.27 1.27))))
      )
    )
  )
  (symbol "nRF52820-QDxx" (in_bom yes) (on_board yes)
    (property "Reference" "U" (at -2.54 0 0)
      (effects (font (size 1.27 1.27)))
    )
    (property "Value" "nRF52820-QDxx" (at -2.54 -2.54 0)
      (effects (font (size 1.27 1.27)))
    )
    (property "Footprint" "Package_DFN_QFN:QFN-40-1EP_5x5mm_P0.4mm_EP3.6x3.6mm" (at 0 -35.56 0)
      (effects (font (size 1.27 1.27)) hide)
    )
    (property "Datasheet" "https://infocenter.nordicsemi.com/pdf/nRF52820_PS_v1.0.pdf" (at -16.51 48.26 0)
      (effects (font (size 1.27 1.27)) hide)
    )
    (property "ki_keywords" "MCU ARM BLE ANT 2.4GHz 802.15.4" (at 0 0 0)
      (effects (font (size 1.27 1.27)) hide)
    )
    (property "ki_description" "Multiprotocol BLE/ANT/2.4 GHz/802.15.4 Cortex-M4 SoC, QFN-40" (at 0 0 0)
      (effects (font (size 1.27 1.27)) hide)
    )
    (property "ki_fp_filters" "QFN*1EP*5x5mm*P0.4mm*" (at 0 0 0)
      (effects (font (size 1.27 1.27)) hide)
    )
    (symbol "nRF52820-QDxx_0_1"
      (rectangle (start -25.4 22.86) (end 25.4 -22.86)
        (stroke (width 0.254) (type default))
        (fill (type background))
      )
    )
    (symbol "nRF52820-QDxx_1_1"
      (pin passive line (at -22.86 25.4 270) (length 2.54)
        (name "DEC1" (effects (font (size 1.27 1.27))))
        (number "1" (effects (font (size 1.27 1.27))))
      )
      (pin power_in line (at 7.62 25.4 270) (length 2.54)
        (name "VBUS" (effects (font (size 1.27 1.27))))
        (number "10" (effects (font (size 1.27 1.27))))
      )
      (pin passive line (at -10.16 25.4 270) (length 2.54)
        (name "DECUSB" (effects (font (size 1.27 1.27))))
        (number "11" (effects (font (size 1.27 1.27))))
      )
      (pin bidirectional line (at -27.94 -10.16 0) (length 2.54)
        (name "D-" (effects (font (size 1.27 1.27))))
        (number "12" (effects (font (size 1.27 1.27))))
      )
      (pin bidirectional line (at -27.94 -7.62 0) (length 2.54)
        (name "D+" (effects (font (size 1.27 1.27))))
        (number "13" (effects (font (size 1.27 1.27))))
      )
      (pin bidirectional line (at 27.94 -2.54 180) (length 2.54)
        (name "P0.14" (effects (font (size 1.27 1.27))))
        (number "14" (effects (font (size 1.27 1.27))))
      )
      (pin bidirectional line (at 27.94 -5.08 180) (length 2.54)
        (name "P0.15" (effects (font (size 1.27 1.27))))
        (number "15" (effects (font (size 1.27 1.27))))
      )
      (pin bidirectional line (at -27.94 -15.24 0) (length 2.54)
        (name "P0.18/~{RESET}" (effects (font (size 1.27 1.27))))
        (number "16" (effects (font (size 1.27 1.27))))
      )
      (pin bidirectional line (at 27.94 -12.7 180) (length 2.54)
        (name "P0.20" (effects (font (size 1.27 1.27))))
        (number "17" (effects (font (size 1.27 1.27))))
      )
      (pin power_in line (at 0 25.4 270) (length 2.54)
        (name "VDD" (effects (font (size 1.27 1.27))))
        (number "18" (effects (font (size 1.27 1.27))))
      )
      (pin bidirectional line (at -27.94 -20.32 0) (length 2.54)
        (name "SWDIO" (effects (font (size 1.27 1.27))))
        (number "19" (effects (font (size 1.27 1.27))))
      )
      (pin bidirectional line (at 27.94 20.32 180) (length 2.54)
        (name "XL1/P0.00" (effects (font (size 1.27 1.27))))
        (number "2" (effects (font (size 1.27 1.27))))
      )
      (pin input line (at -27.94 -17.78 0) (length 2.54)
        (name "SWDCLK" (effects (font (size 1.27 1.27))))
        (number "20" (effects (font (size 1.27 1.27))))
      )
      (pin passive line (at -15.24 25.4 270) (length 2.54)
        (name "DEC5" (effects (font (size 1.27 1.27))))
        (number "21" (effects (font (size 1.27 1.27))))
      )
      (pin bidirectional line (at 27.94 -7.62 180) (length 2.54)
        (name "P0.16" (effects (font (size 1.27 1.27))))
        (number "22" (effects (font (size 1.27 1.27))))
      )
      (pin bidirectional line (at 27.94 -10.16 180) (length 2.54)
        (name "P0.17" (effects (font (size 1.27 1.27))))
        (number "23" (effects (font (size 1.27 1.27))))
      )
      (pin passive line (at -27.94 15.24 0) (length 2.54)
        (name "ANT" (effects (font (size 1.27 1.27))))
        (number "24" (effects (font (size 1.27 1.27))))
      )
      (pin power_in line (at 0 -25.4 90) (length 2.54)
        (name "VSS_PA" (effects (font (size 1.27 1.27))))
        (number "25" (effects (font (size 1.27 1.27))))
      )
      (pin passive line (at -12.7 25.4 270) (length 2.54)
        (name "DEC6" (effects (font (size 1.27 1.27))))
        (number "26" (effects (font (size 1.27 1.27))))
      )
      (pin passive line (at -20.32 25.4 270) (length 2.54)
        (name "DEC3" (effects (font (size 1.27 1.27))))
        (number "27" (effects (font (size 1.27 1.27))))
      )
      (pin input line (at -27.94 7.62 0) (length 2.54)
        (name "XC1" (effects (font (size 1.27 1.27))))
        (number "28" (effects (font (size 1.27 1.27))))
      )
      (pin input line (at -27.94 -2.54 0) (length 2.54)
        (name "XC2" (effects (font (size 1.27 1.27))))
        (number "29" (effects (font (size 1.27 1.27))))
      )
      (pin bidirectional line (at 27.94 17.78 180) (length 2.54)
        (name "XL2/P0.01" (effects (font (size 1.27 1.27))))
        (number "3" (effects (font (size 1.27 1.27))))
      )
      (pin power_in line (at 2.54 25.4 270) (length 2.54)
        (name "VDD" (effects (font (size 1.27 1.27))))
        (number "30" (effects (font (size 1.27 1.27))))
      )
      (pin bidirectional line (at 27.94 0 180) (length 2.54)
        (name "P0.08" (effects (font (size 1.27 1.27))))
        (number "31" (effects (font (size 1.27 1.27))))
      )
      (pin bidirectional line (at 27.94 -17.78 180) (length 2.54)
        (name "P0.29" (effects (font (size 1.27 1.27))))
        (number "32" (effects (font (size 1.27 1.27))))
      )
      (pin bidirectional line (at 27.94 -20.32 180) (length 2.54)
        (name "P0.30" (effects (font (size 1.27 1.27))))
        (number "33" (effects (font (size 1.27 1.27))))
      )
      (pin bidirectional line (at 27.94 -15.24 180) (length 2.54)
        (name "P0.28" (effects (font (size 1.27 1.27))))
        (number "34" (effects (font (size 1.27 1.27))))
      )
      (pin bidirectional line (at 27.94 12.7 180) (length 2.54)
        (name "AIN1/P0.03" (effects (font (size 1.27 1.27))))
        (number "35" (effects (font (size 1.27 1.27))))
      )
      (pin bidirectional line (at 27.94 15.24 180) (length 2.54)
        (name "AIN0/P0.02" (effects (font (size 1.27 1.27))))
        (number "36" (effects (font (size 1.27 1.27))))
      )
      (pin power_in line (at -2.54 -25.4 90) (length 2.54)
        (name "VSS" (effects (font (size 1.27 1.27))))
        (number "37" (effects (font (size 1.27 1.27))))
      )
      (pin passive line (at -17.78 25.4 270) (length 2.54)
        (name "DEC4" (effects (font (size 1.27 1.27))))
        (number "38" (effects (font (size 1.27 1.27))))
      )
      (pin power_out line (at 12.7 25.4 270) (length 2.54)
        (name "DCC" (effects (font (size 1.27 1.27))))
        (number "39" (effects (font (size 1.27 1.27))))
      )
      (pin bidirectional line (at 27.94 10.16 180) (length 2.54)
        (name "AIN2/P0.04" (effects (font (size 1.27 1.27))))
        (number "4" (effects (font (size 1.27 1.27))))
      )
      (pin power_in line (at -5.08 25.4 270) (length 2.54)
        (name "VDD" (effects (font (size 1.27 1.27))))
        (number "40" (effects (font (size 1.27 1.27))))
      )
      (pin passive line (at -2.54 -25.4 90) (length 2.54) hide
        (name "VSS" (effects (font (size 1.27 1.27))))
        (number "41" (effects (font (size 1.27 1.27))))
      )
      (pin bidirectional line (at 27.94 7.62 180) (length 2.54)
        (name "AIN3/P0.05" (effects (font (size 1.27 1.27))))
        (number "5" (effects (font (size 1.27 1.27))))
      )
      (pin bidirectional line (at 27.94 5.08 180) (length 2.54)
        (name "P0.06" (effects (font (size 1.27 1.27))))
        (number "6" (effects (font (size 1.27 1.27))))
      )
      (pin bidirectional line (at 27.94 2.54 180) (length 2.54)
        (name "P0.07" (effects (font (size 1.27 1.27))))
        (number "7" (effects (font (size 1.27 1.27))))
      )
      (pin power_in line (at -2.54 25.4 270) (length 2.54)
        (name "VDD" (effects (font (size 1.27 1.27))))
        (number "8" (effects (font (size 1.27 1.27))))
      )
      (pin power_in line (at 5.08 25.4 270) (length 2.54)
        (name "VDDH" (effects (font (size 1.27 1.27))))
        (number "9" (effects (font (size 1.27 1.27))))
      )
    )
  )
  (symbol "nRF52832-QFxx" (in_bom yes) (on_board yes)
    (property "Reference" "U" (at 0 1.27 0)
      (effects (font (size 1.27 1.27)))
    )
    (property "Value" "nRF52832-QFxx" (at 0 -1.27 0)
      (effects (font (size 1.27 1.27)))
    )
    (property "Footprint" "Package_DFN_QFN:QFN-48-1EP_6x6mm_P0.4mm_EP4.6x4.6mm" (at 0 -53.34 0)
      (effects (font (size 1.27 1.27)) hide)
    )
    (property "Datasheet" "http://infocenter.nordicsemi.com/pdf/nRF52832_PS_v1.4.pdf" (at -12.7 5.08 0)
      (effects (font (size 1.27 1.27)) hide)
    )
    (property "ki_keywords" "MCU ARM BLE 2.4GHz" (at 0 0 0)
      (effects (font (size 1.27 1.27)) hide)
    )
    (property "ki_description" "Multiprotocol BLE/2.4GHz Cortex-M4 SoC, QFN-48" (at 0 0 0)
      (effects (font (size 1.27 1.27)) hide)
    )
    (property "ki_fp_filters" "QFN*1EP*6x6mm*P0.4mm*" (at 0 0 0)
      (effects (font (size 1.27 1.27)) hide)
    )
    (symbol "nRF52832-QFxx_0_1"
      (rectangle (start -20.32 40.64) (end 20.32 -40.64)
        (stroke (width 0.254) (type default))
        (fill (type background))
      )
    )
    (symbol "nRF52832-QFxx_1_1"
      (pin passive line (at -12.7 43.18 270) (length 2.54)
        (name "DEC1" (effects (font (size 1.27 1.27))))
        (number "1" (effects (font (size 1.27 1.27))))
      )
      (pin bidirectional line (at 22.86 17.78 180) (length 2.54)
        (name "P0.08" (effects (font (size 1.27 1.27))))
        (number "10" (effects (font (size 1.27 1.27))))
      )
      (pin bidirectional line (at 22.86 15.24 180) (length 2.54)
        (name "NFC1/P0.09" (effects (font (size 1.27 1.27))))
        (number "11" (effects (font (size 1.27 1.27))))
      )
      (pin bidirectional line (at 22.86 12.7 180) (length 2.54)
        (name "NFC2/P0.10" (effects (font (size 1.27 1.27))))
        (number "12" (effects (font (size 1.27 1.27))))
      )
      (pin power_in line (at 0 43.18 270) (length 2.54)
        (name "VDD" (effects (font (size 1.27 1.27))))
        (number "13" (effects (font (size 1.27 1.27))))
      )
      (pin bidirectional line (at 22.86 10.16 180) (length 2.54)
        (name "P0.11" (effects (font (size 1.27 1.27))))
        (number "14" (effects (font (size 1.27 1.27))))
      )
      (pin bidirectional line (at 22.86 7.62 180) (length 2.54)
        (name "P0.12" (effects (font (size 1.27 1.27))))
        (number "15" (effects (font (size 1.27 1.27))))
      )
      (pin bidirectional line (at 22.86 5.08 180) (length 2.54)
        (name "P0.13" (effects (font (size 1.27 1.27))))
        (number "16" (effects (font (size 1.27 1.27))))
      )
      (pin bidirectional line (at 22.86 2.54 180) (length 2.54)
        (name "P0.14" (effects (font (size 1.27 1.27))))
        (number "17" (effects (font (size 1.27 1.27))))
      )
      (pin bidirectional line (at 22.86 0 180) (length 2.54)
        (name "P0.15" (effects (font (size 1.27 1.27))))
        (number "18" (effects (font (size 1.27 1.27))))
      )
      (pin bidirectional line (at 22.86 -2.54 180) (length 2.54)
        (name "P0.16" (effects (font (size 1.27 1.27))))
        (number "19" (effects (font (size 1.27 1.27))))
      )
      (pin bidirectional line (at 22.86 38.1 180) (length 2.54)
        (name "P0.00/XL1" (effects (font (size 1.27 1.27))))
        (number "2" (effects (font (size 1.27 1.27))))
      )
      (pin bidirectional line (at 22.86 -5.08 180) (length 2.54)
        (name "P0.17" (effects (font (size 1.27 1.27))))
        (number "20" (effects (font (size 1.27 1.27))))
      )
      (pin bidirectional line (at 22.86 -7.62 180) (length 2.54)
        (name "P0.18/SWO" (effects (font (size 1.27 1.27))))
        (number "21" (effects (font (size 1.27 1.27))))
      )
      (pin bidirectional line (at 22.86 -10.16 180) (length 2.54)
        (name "P0.19" (effects (font (size 1.27 1.27))))
        (number "22" (effects (font (size 1.27 1.27))))
      )
      (pin bidirectional line (at 22.86 -12.7 180) (length 2.54)
        (name "P0.20" (effects (font (size 1.27 1.27))))
        (number "23" (effects (font (size 1.27 1.27))))
      )
      (pin bidirectional line (at -22.86 -15.24 0) (length 2.54)
        (name "P0.21/~{RESET}" (effects (font (size 1.27 1.27))))
        (number "24" (effects (font (size 1.27 1.27))))
      )
      (pin input line (at -22.86 -17.78 0) (length 2.54)
        (name "SWDCLK" (effects (font (size 1.27 1.27))))
        (number "25" (effects (font (size 1.27 1.27))))
      )
      (pin bidirectional line (at -22.86 -20.32 0) (length 2.54)
        (name "SWDIO" (effects (font (size 1.27 1.27))))
        (number "26" (effects (font (size 1.27 1.27))))
      )
      (pin bidirectional line (at 22.86 -15.24 180) (length 2.54)
        (name "P0.22" (effects (font (size 1.27 1.27))))
        (number "27" (effects (font (size 1.27 1.27))))
      )
      (pin bidirectional line (at 22.86 -17.78 180) (length 2.54)
        (name "P0.23" (effects (font (size 1.27 1.27))))
        (number "28" (effects (font (size 1.27 1.27))))
      )
      (pin bidirectional line (at 22.86 -20.32 180) (length 2.54)
        (name "P0.24" (effects (font (size 1.27 1.27))))
        (number "29" (effects (font (size 1.27 1.27))))
      )
      (pin bidirectional line (at 22.86 35.56 180) (length 2.54)
        (name "P0.01/XL2" (effects (font (size 1.27 1.27))))
        (number "3" (effects (font (size 1.27 1.27))))
      )
      (pin passive line (at -22.86 17.78 0) (length 2.54)
        (name "ANT" (effects (font (size 1.27 1.27))))
        (number "30" (effects (font (size 1.27 1.27))))
      )
      (pin power_in line (at 0 -43.18 90) (length 2.54)
        (name "VSS" (effects (font (size 1.27 1.27))))
        (number "31" (effects (font (size 1.27 1.27))))
      )
      (pin passive line (at -10.16 43.18 270) (length 2.54)
        (name "DEC2" (effects (font (size 1.27 1.27))))
        (number "32" (effects (font (size 1.27 1.27))))
      )
      (pin passive line (at -7.62 43.18 270) (length 2.54)
        (name "DEC3" (effects (font (size 1.27 1.27))))
        (number "33" (effects (font (size 1.27 1.27))))
      )
      (pin input line (at -22.86 5.08 0) (length 2.54)
        (name "XC1" (effects (font (size 1.27 1.27))))
        (number "34" (effects (font (size 1.27 1.27))))
      )
      (pin input line (at -22.86 -5.08 0) (length 2.54)
        (name "XC2" (effects (font (size 1.27 1.27))))
        (number "35" (effects (font (size 1.27 1.27))))
      )
      (pin passive line (at 0 43.18 270) (length 2.54) hide
        (name "VDD" (effects (font (size 1.27 1.27))))
        (number "36" (effects (font (size 1.27 1.27))))
      )
      (pin bidirectional line (at 22.86 -22.86 180) (length 2.54)
        (name "P0.25" (effects (font (size 1.27 1.27))))
        (number "37" (effects (font (size 1.27 1.27))))
      )
      (pin bidirectional line (at 22.86 -25.4 180) (length 2.54)
        (name "P0.26" (effects (font (size 1.27 1.27))))
        (number "38" (effects (font (size 1.27 1.27))))
      )
      (pin bidirectional line (at 22.86 -27.94 180) (length 2.54)
        (name "P0.27" (effects (font (size 1.27 1.27))))
        (number "39" (effects (font (size 1.27 1.27))))
      )
      (pin bidirectional line (at 22.86 33.02 180) (length 2.54)
        (name "P0.02/AIN0" (effects (font (size 1.27 1.27))))
        (number "4" (effects (font (size 1.27 1.27))))
      )
      (pin bidirectional line (at 22.86 -30.48 180) (length 2.54)
        (name "P0.28/AIN4" (effects (font (size 1.27 1.27))))
        (number "40" (effects (font (size 1.27 1.27))))
      )
      (pin bidirectional line (at 22.86 -33.02 180) (length 2.54)
        (name "P0.29/AIN5" (effects (font (size 1.27 1.27))))
        (number "41" (effects (font (size 1.27 1.27))))
      )
      (pin bidirectional line (at 22.86 -35.56 180) (length 2.54)
        (name "P0.30/AIN6" (effects (font (size 1.27 1.27))))
        (number "42" (effects (font (size 1.27 1.27))))
      )
      (pin bidirectional line (at 22.86 -38.1 180) (length 2.54)
        (name "P0.31/AIN7" (effects (font (size 1.27 1.27))))
        (number "43" (effects (font (size 1.27 1.27))))
      )
      (pin no_connect line (at -20.32 -30.48 0) (length 2.54) hide
        (name "NC" (effects (font (size 1.27 1.27))))
        (number "44" (effects (font (size 1.27 1.27))))
      )
      (pin passive line (at 0 -43.18 90) (length 2.54) hide
        (name "VSS" (effects (font (size 1.27 1.27))))
        (number "45" (effects (font (size 1.27 1.27))))
      )
      (pin passive line (at -5.08 43.18 270) (length 2.54)
        (name "DEC4" (effects (font (size 1.27 1.27))))
        (number "46" (effects (font (size 1.27 1.27))))
      )
      (pin power_out line (at 5.08 43.18 270) (length 2.54)
        (name "DCC" (effects (font (size 1.27 1.27))))
        (number "47" (effects (font (size 1.27 1.27))))
      )
      (pin passive line (at 0 43.18 270) (length 2.54) hide
        (name "VDD" (effects (font (size 1.27 1.27))))
        (number "48" (effects (font (size 1.27 1.27))))
      )
      (pin passive line (at 0 -43.18 90) (length 2.54) hide
        (name "VSS" (effects (font (size 1.27 1.27))))
        (number "49" (effects (font (size 1.27 1.27))))
      )
      (pin bidirectional line (at 22.86 30.48 180) (length 2.54)
        (name "P0.03/AIN1" (effects (font (size 1.27 1.27))))
        (number "5" (effects (font (size 1.27 1.27))))
      )
      (pin bidirectional line (at 22.86 27.94 180) (length 2.54)
        (name "P0.04/AIN2" (effects (font (size 1.27 1.27))))
        (number "6" (effects (font (size 1.27 1.27))))
      )
      (pin bidirectional line (at 22.86 25.4 180) (length 2.54)
        (name "P0.05/AIN3" (effects (font (size 1.27 1.27))))
        (number "7" (effects (font (size 1.27 1.27))))
      )
      (pin bidirectional line (at 22.86 22.86 180) (length 2.54)
        (name "P0.06" (effects (font (size 1.27 1.27))))
        (number "8" (effects (font (size 1.27 1.27))))
      )
      (pin bidirectional line (at 22.86 20.32 180) (length 2.54)
        (name "P0.07" (effects (font (size 1.27 1.27))))
        (number "9" (effects (font (size 1.27 1.27))))
      )
    )
  )
  (symbol "nRF52833_QDxx" (in_bom yes) (on_board yes)
    (property "Reference" "U" (at 0 5.08 0)
      (effects (font (size 1.27 1.27)))
    )
    (property "Value" "nRF52833_QDxx" (at 0 2.54 0)
      (effects (font (size 1.27 1.27)))
    )
    (property "Footprint" "Package_DFN_QFN:QFN-40-1EP_5x5mm_P0.4mm_EP3.6x3.6mm" (at 0 -73.66 0)
      (effects (font (size 1.27 1.27)) hide)
    )
    (property "Datasheet" "https://infocenter.nordicsemi.com/pdf/nRF52833_PS_v1.5.pdf" (at -16.51 48.26 0)
      (effects (font (size 1.27 1.27)) hide)
    )
    (property "ki_keywords" "MCU ARM BLE ANT 2.4GHz 802.15.4" (at 0 0 0)
      (effects (font (size 1.27 1.27)) hide)
    )
    (property "ki_description" "Multiprotocol BLE/ANT/2.4 GHz/802.15.4 Cortex-M4F SoC, QFN-40" (at 0 0 0)
      (effects (font (size 1.27 1.27)) hide)
    )
    (property "ki_fp_filters" "QFN*1EP*5x5mm*P0.4mm*" (at 0 0 0)
      (effects (font (size 1.27 1.27)) hide)
    )
    (symbol "nRF52833_QDxx_0_1"
      (rectangle (start -27.94 66.04) (end 27.94 -66.04)
        (stroke (width 0.254) (type default))
        (fill (type background))
      )
    )
    (symbol "nRF52833_QDxx_1_1"
      (pin passive line (at -20.32 71.12 270) (length 5.08)
        (name "DEC1" (effects (font (size 1.27 1.27))))
        (number "1" (effects (font (size 1.27 1.27))))
      )
      (pin power_in line (at 5.08 71.12 270) (length 5.08)
        (name "VBUS" (effects (font (size 1.27 1.27))))
        (number "10" (effects (font (size 1.27 1.27))))
      )
      (pin passive line (at -5.08 71.12 270) (length 5.08)
        (name "DECUSB" (effects (font (size 1.27 1.27))))
        (number "11" (effects (font (size 1.27 1.27))))
      )
      (pin bidirectional line (at 33.02 -60.96 180) (length 5.08)
        (name "D-" (effects (font (size 1.27 1.27))))
        (number "12" (effects (font (size 1.27 1.27))))
      )
      (pin bidirectional line (at 33.02 -63.5 180) (length 5.08)
        (name "D+" (effects (font (size 1.27 1.27))))
        (number "13" (effects (font (size 1.27 1.27))))
      )
      (pin bidirectional line (at 33.02 25.4 180) (length 5.08)
        (name "P0.15" (effects (font (size 1.27 1.27))))
        (number "14" (effects (font (size 1.27 1.27))))
      )
      (pin bidirectional line (at 33.02 20.32 180) (length 5.08)
        (name "P0.17" (effects (font (size 1.27 1.27))))
        (number "15" (effects (font (size 1.27 1.27))))
      )
      (pin bidirectional line (at -33.02 -43.18 0) (length 5.08)
        (name "P0.18/~{RESET}" (effects (font (size 1.27 1.27))))
        (number "16" (effects (font (size 1.27 1.27))))
      )
      (pin bidirectional line (at 33.02 15.24 180) (length 5.08)
        (name "P0.20" (effects (font (size 1.27 1.27))))
        (number "17" (effects (font (size 1.27 1.27))))
      )
      (pin passive line (at 0 71.12 270) (length 5.08) hide
        (name "VDD" (effects (font (size 1.27 1.27))))
        (number "18" (effects (font (size 1.27 1.27))))
      )
      (pin bidirectional line (at -33.02 -48.26 0) (length 5.08)
        (name "SWDIO" (effects (font (size 1.27 1.27))))
        (number "19" (effects (font (size 1.27 1.27))))
      )
      (pin bidirectional line (at 33.02 63.5 180) (length 5.08)
        (name "XL1/P0.00" (effects (font (size 1.27 1.27))))
        (number "2" (effects (font (size 1.27 1.27))))
      )
      (pin input line (at -33.02 -45.72 0) (length 5.08)
        (name "SWDCLK" (effects (font (size 1.27 1.27))))
        (number "20" (effects (font (size 1.27 1.27))))
      )
      (pin passive line (at -10.16 71.12 270) (length 5.08)
        (name "DEC5" (effects (font (size 1.27 1.27))))
        (number "21" (effects (font (size 1.27 1.27))))
      )
      (pin bidirectional line (at 33.02 40.64 180) (length 5.08)
        (name "NFC1/P0.09" (effects (font (size 1.27 1.27))))
        (number "22" (effects (font (size 1.27 1.27))))
      )
      (pin bidirectional line (at 33.02 38.1 180) (length 5.08)
        (name "NFC2/P0.10" (effects (font (size 1.27 1.27))))
        (number "23" (effects (font (size 1.27 1.27))))
      )
      (pin passive line (at -33.02 45.72 0) (length 5.08)
        (name "ANT" (effects (font (size 1.27 1.27))))
        (number "24" (effects (font (size 1.27 1.27))))
      )
      (pin power_in line (at 2.54 -71.12 90) (length 5.08)
        (name "VSS_PA" (effects (font (size 1.27 1.27))))
        (number "25" (effects (font (size 1.27 1.27))))
      )
      (pin passive line (at -7.62 71.12 270) (length 5.08)
        (name "DEC6" (effects (font (size 1.27 1.27))))
        (number "26" (effects (font (size 1.27 1.27))))
      )
      (pin passive line (at -15.24 71.12 270) (length 5.08)
        (name "DEC3" (effects (font (size 1.27 1.27))))
        (number "27" (effects (font (size 1.27 1.27))))
      )
      (pin input line (at -33.02 5.08 0) (length 5.08)
        (name "XC1" (effects (font (size 1.27 1.27))))
        (number "28" (effects (font (size 1.27 1.27))))
      )
      (pin input line (at -33.02 -5.08 0) (length 5.08)
        (name "XC2" (effects (font (size 1.27 1.27))))
        (number "29" (effects (font (size 1.27 1.27))))
      )
      (pin bidirectional line (at 33.02 60.96 180) (length 5.08)
        (name "XL2/P0.01" (effects (font (size 1.27 1.27))))
        (number "3" (effects (font (size 1.27 1.27))))
      )
      (pin passive line (at 0 71.12 270) (length 5.08) hide
        (name "VDD" (effects (font (size 1.27 1.27))))
        (number "30" (effects (font (size 1.27 1.27))))
      )
      (pin bidirectional line (at 33.02 55.88 180) (length 5.08)
        (name "AIN1/P0.03" (effects (font (size 1.27 1.27))))
        (number "31" (effects (font (size 1.27 1.27))))
      )
      (pin bidirectional line (at 33.02 58.42 180) (length 5.08)
        (name "AIN0/P0.02" (effects (font (size 1.27 1.27))))
        (number "32" (effects (font (size 1.27 1.27))))
      )
      (pin bidirectional line (at 33.02 -5.08 180) (length 5.08)
        (name "AIN4/P0.28" (effects (font (size 1.27 1.27))))
        (number "33" (effects (font (size 1.27 1.27))))
      )
      (pin bidirectional line (at 33.02 -7.62 180) (length 5.08)
        (name "AIN5/P0.29" (effects (font (size 1.27 1.27))))
        (number "34" (effects (font (size 1.27 1.27))))
      )
      (pin bidirectional line (at 33.02 -10.16 180) (length 5.08)
        (name "AIN6/P0.30" (effects (font (size 1.27 1.27))))
        (number "35" (effects (font (size 1.27 1.27))))
      )
      (pin bidirectional line (at 33.02 -12.7 180) (length 5.08)
        (name "AIN7/P0.31" (effects (font (size 1.27 1.27))))
        (number "36" (effects (font (size 1.27 1.27))))
      )
      (pin power_in line (at 0 -71.12 90) (length 5.08)
        (name "VSS" (effects (font (size 1.27 1.27))))
        (number "37" (effects (font (size 1.27 1.27))))
      )
      (pin passive line (at -12.7 71.12 270) (length 5.08)
        (name "DEC4" (effects (font (size 1.27 1.27))))
        (number "38" (effects (font (size 1.27 1.27))))
      )
      (pin power_out line (at 10.16 71.12 270) (length 5.08)
        (name "DCC" (effects (font (size 1.27 1.27))))
        (number "39" (effects (font (size 1.27 1.27))))
      )
      (pin bidirectional line (at 33.02 53.34 180) (length 5.08)
        (name "AIN2/P0.04" (effects (font (size 1.27 1.27))))
        (number "4" (effects (font (size 1.27 1.27))))
      )
      (pin passive line (at 0 71.12 270) (length 5.08) hide
        (name "VDD" (effects (font (size 1.27 1.27))))
        (number "40" (effects (font (size 1.27 1.27))))
      )
      (pin passive line (at 0 -71.12 90) (length 5.08) hide
        (name "VSS" (effects (font (size 1.27 1.27))))
        (number "41" (effects (font (size 1.27 1.27))))
      )
      (pin bidirectional line (at 33.02 50.8 180) (length 5.08)
        (name "AIN3/P0.05" (effects (font (size 1.27 1.27))))
        (number "5" (effects (font (size 1.27 1.27))))
      )
      (pin bidirectional line (at 33.02 -40.64 180) (length 5.08)
        (name "P1.09" (effects (font (size 1.27 1.27))))
        (number "6" (effects (font (size 1.27 1.27))))
      )
      (pin bidirectional line (at 33.02 35.56 180) (length 5.08)
        (name "P0.11" (effects (font (size 1.27 1.27))))
        (number "7" (effects (font (size 1.27 1.27))))
      )
      (pin power_in line (at 0 71.12 270) (length 5.08)
        (name "VDD" (effects (font (size 1.27 1.27))))
        (number "8" (effects (font (size 1.27 1.27))))
      )
      (pin power_in line (at 2.54 71.12 270) (length 5.08)
        (name "VDDH" (effects (font (size 1.27 1.27))))
        (number "9" (effects (font (size 1.27 1.27))))
      )
    )
  )
  (symbol "nRF52833_QIxx" (in_bom yes) (on_board yes)
    (property "Reference" "U" (at 0 5.08 0)
      (effects (font (size 1.27 1.27)))
    )
    (property "Value" "nRF52833_QIxx" (at 0 2.54 0)
      (effects (font (size 1.27 1.27)))
    )
    (property "Footprint" "Package_DFN_QFN:Nordic_AQFN-73-1EP_7x7mm_P0.5mm" (at 0 -73.66 0)
      (effects (font (size 1.27 1.27)) hide)
    )
    (property "Datasheet" "https://infocenter.nordicsemi.com/pdf/nRF52833_PS_v1.5.pdf" (at -16.51 48.26 0)
      (effects (font (size 1.27 1.27)) hide)
    )
    (property "ki_keywords" "MCU ARM BLE ANT 2.4GHz 802.15.4" (at 0 0 0)
      (effects (font (size 1.27 1.27)) hide)
    )
    (property "ki_description" "Multiprotocol BLE/ANT/2.4 GHz/802.15.4 Cortex-M4F SoC, AQFN-73" (at 0 0 0)
      (effects (font (size 1.27 1.27)) hide)
    )
    (property "ki_fp_filters" "Nordic*AQFN*1EP*7x7mm*P0.5mm*" (at 0 0 0)
      (effects (font (size 1.27 1.27)) hide)
    )
    (symbol "nRF52833_QIxx_0_1"
      (rectangle (start -27.94 66.04) (end 27.94 -66.04)
        (stroke (width 0.254) (type default))
        (fill (type background))
      )
    )
    (symbol "nRF52833_QIxx_1_1"
      (pin bidirectional line (at 33.02 -7.62 180) (length 5.08)
        (name "AIN5/P0.29" (effects (font (size 1.27 1.27))))
        (number "A10" (effects (font (size 1.27 1.27))))
      )
      (pin bidirectional line (at 33.02 58.42 180) (length 5.08)
        (name "AIN0/P0.02" (effects (font (size 1.27 1.27))))
        (number "A12" (effects (font (size 1.27 1.27))))
      )
      (pin bidirectional line (at 33.02 17.78 180) (length 5.08)
        (name "P0.19" (effects (font (size 1.27 1.27))))
        (number "A14" (effects (font (size 1.27 1.27))))
      )
      (pin bidirectional line (at 33.02 -30.48 180) (length 5.08)
        (name "P1.05" (effects (font (size 1.27 1.27))))
        (number "A16" (effects (font (size 1.27 1.27))))
      )
      (pin no_connect line (at -17.78 66.04 270) (length 5.08) hide
        (name "NC" (effects (font (size 1.27 1.27))))
        (number "A18" (effects (font (size 1.27 1.27))))
      )
      (pin bidirectional line (at 33.02 2.54 180) (length 5.08)
        (name "P0.25" (effects (font (size 1.27 1.27))))
        (number "A20" (effects (font (size 1.27 1.27))))
      )
      (pin passive line (at 0 71.12 270) (length 5.08) hide
        (name "VDD" (effects (font (size 1.27 1.27))))
        (number "A22" (effects (font (size 1.27 1.27))))
      )
      (pin input line (at -33.02 -5.08 0) (length 5.08)
        (name "XC2" (effects (font (size 1.27 1.27))))
        (number "A23" (effects (font (size 1.27 1.27))))
      )
      (pin bidirectional line (at 33.02 -12.7 180) (length 5.08)
        (name "AIN7/P0.31" (effects (font (size 1.27 1.27))))
        (number "A8" (effects (font (size 1.27 1.27))))
      )
      (pin input line (at -33.02 -45.72 0) (length 5.08)
        (name "SWDCLK" (effects (font (size 1.27 1.27))))
        (number "AA24" (effects (font (size 1.27 1.27))))
      )
      (pin no_connect line (at 12.7 66.04 270) (length 5.08) hide
        (name "NC" (effects (font (size 1.27 1.27))))
        (number "AB2" (effects (font (size 1.27 1.27))))
      )
      (pin bidirectional line (at 33.02 22.86 180) (length 5.08)
        (name "P0.16" (effects (font (size 1.27 1.27))))
        (number "AC11" (effects (font (size 1.27 1.27))))
      )
      (pin bidirectional line (at -33.02 -43.18 0) (length 5.08)
        (name "P0.18/~{RESET}" (effects (font (size 1.27 1.27))))
        (number "AC13" (effects (font (size 1.27 1.27))))
      )
      (pin no_connect line (at 27.94 -55.88 180) (length 5.08) hide
        (name "NC" (effects (font (size 1.27 1.27))))
        (number "AC15" (effects (font (size 1.27 1.27))))
      )
      (pin bidirectional line (at 33.02 12.7 180) (length 5.08)
        (name "P0.21" (effects (font (size 1.27 1.27))))
        (number "AC17" (effects (font (size 1.27 1.27))))
      )
      (pin no_connect line (at 27.94 -48.26 180) (length 5.08) hide
        (name "NC" (effects (font (size 1.27 1.27))))
        (number "AC19" (effects (font (size 1.27 1.27))))
      )
      (pin no_connect line (at 27.94 -43.18 180) (length 5.08) hide
        (name "NC" (effects (font (size 1.27 1.27))))
        (number "AC21" (effects (font (size 1.27 1.27))))
      )
      (pin bidirectional line (at -33.02 -48.26 0) (length 5.08)
        (name "SWDIO" (effects (font (size 1.27 1.27))))
        (number "AC24" (effects (font (size 1.27 1.27))))
      )
      (pin passive line (at -5.08 71.12 270) (length 5.08)
        (name "DECUSB" (effects (font (size 1.27 1.27))))
        (number "AC5" (effects (font (size 1.27 1.27))))
      )
      (pin bidirectional line (at 33.02 27.94 180) (length 5.08)
        (name "P0.14" (effects (font (size 1.27 1.27))))
        (number "AC9" (effects (font (size 1.27 1.27))))
      )
      (pin bidirectional line (at 33.02 25.4 180) (length 5.08)
        (name "P0.15" (effects (font (size 1.27 1.27))))
        (number "AD10" (effects (font (size 1.27 1.27))))
      )
      (pin bidirectional line (at 33.02 20.32 180) (length 5.08)
        (name "P0.17" (effects (font (size 1.27 1.27))))
        (number "AD12" (effects (font (size 1.27 1.27))))
      )
      (pin passive line (at 0 71.12 270) (length 5.08) hide
        (name "VDD" (effects (font (size 1.27 1.27))))
        (number "AD14" (effects (font (size 1.27 1.27))))
      )
      (pin bidirectional line (at 33.02 15.24 180) (length 5.08)
        (name "P0.20" (effects (font (size 1.27 1.27))))
        (number "AD16" (effects (font (size 1.27 1.27))))
      )
      (pin bidirectional line (at 33.02 10.16 180) (length 5.08)
        (name "P0.22" (effects (font (size 1.27 1.27))))
        (number "AD18" (effects (font (size 1.27 1.27))))
      )
      (pin power_in line (at 5.08 71.12 270) (length 5.08)
        (name "VBUS" (effects (font (size 1.27 1.27))))
        (number "AD2" (effects (font (size 1.27 1.27))))
      )
      (pin bidirectional line (at 33.02 5.08 180) (length 5.08)
        (name "P0.24" (effects (font (size 1.27 1.27))))
        (number "AD20" (effects (font (size 1.27 1.27))))
      )
      (pin bidirectional line (at 33.02 -17.78 180) (length 5.08)
        (name "TRACEDATA0/P1.00" (effects (font (size 1.27 1.27))))
        (number "AD22" (effects (font (size 1.27 1.27))))
      )
      (pin passive line (at 0 71.12 270) (length 5.08) hide
        (name "VDD" (effects (font (size 1.27 1.27))))
        (number "AD23" (effects (font (size 1.27 1.27))))
      )
      (pin bidirectional line (at 33.02 -60.96 180) (length 5.08)
        (name "D-" (effects (font (size 1.27 1.27))))
        (number "AD4" (effects (font (size 1.27 1.27))))
      )
      (pin bidirectional line (at 33.02 -63.5 180) (length 5.08)
        (name "D+" (effects (font (size 1.27 1.27))))
        (number "AD6" (effects (font (size 1.27 1.27))))
      )
      (pin bidirectional line (at 33.02 30.48 180) (length 5.08)
        (name "P0.13" (effects (font (size 1.27 1.27))))
        (number "AD8" (effects (font (size 1.27 1.27))))
      )
      (pin power_in line (at 0 71.12 270) (length 5.08)
        (name "VDD" (effects (font (size 1.27 1.27))))
        (number "B1" (effects (font (size 1.27 1.27))))
      )
      (pin bidirectional line (at 33.02 -5.08 180) (length 5.08)
        (name "AIN4/P0.28" (effects (font (size 1.27 1.27))))
        (number "B11" (effects (font (size 1.27 1.27))))
      )
      (pin bidirectional line (at 33.02 55.88 180) (length 5.08)
        (name "AIN1/P0.03" (effects (font (size 1.27 1.27))))
        (number "B13" (effects (font (size 1.27 1.27))))
      )
      (pin bidirectional line (at 33.02 -25.4 180) (length 5.08)
        (name "P1.03" (effects (font (size 1.27 1.27))))
        (number "B15" (effects (font (size 1.27 1.27))))
      )
      (pin bidirectional line (at 33.02 7.62 180) (length 5.08)
        (name "P0.23" (effects (font (size 1.27 1.27))))
        (number "B17" (effects (font (size 1.27 1.27))))
      )
      (pin no_connect line (at 27.94 -45.72 180) (length 5.08) hide
        (name "NC" (effects (font (size 1.27 1.27))))
        (number "B19" (effects (font (size 1.27 1.27))))
      )
      (pin input line (at -33.02 5.08 0) (length 5.08)
        (name "XC1" (effects (font (size 1.27 1.27))))
        (number "B24" (effects (font (size 1.27 1.27))))
      )
      (pin power_out line (at 10.16 71.12 270) (length 5.08)
        (name "DCC" (effects (font (size 1.27 1.27))))
        (number "B3" (effects (font (size 1.27 1.27))))
      )
      (pin passive line (at -12.7 71.12 270) (length 5.08)
        (name "DEC4" (effects (font (size 1.27 1.27))))
        (number "B5" (effects (font (size 1.27 1.27))))
      )
      (pin power_in line (at 0 -71.12 90) (length 5.08)
        (name "VSS" (effects (font (size 1.27 1.27))))
        (number "B7" (effects (font (size 1.27 1.27))))
      )
      (pin bidirectional line (at 33.02 -10.16 180) (length 5.08)
        (name "AIN6/P0.30" (effects (font (size 1.27 1.27))))
        (number "B9" (effects (font (size 1.27 1.27))))
      )
      (pin passive line (at -20.32 71.12 270) (length 5.08)
        (name "DEC1" (effects (font (size 1.27 1.27))))
        (number "C1" (effects (font (size 1.27 1.27))))
      )
      (pin bidirectional line (at 33.02 63.5 180) (length 5.08)
        (name "XL1/P0.00" (effects (font (size 1.27 1.27))))
        (number "D2" (effects (font (size 1.27 1.27))))
      )
      (pin passive line (at -15.24 71.12 270) (length 5.08)
        (name "DEC3" (effects (font (size 1.27 1.27))))
        (number "D23" (effects (font (size 1.27 1.27))))
      )
      (pin passive line (at -7.62 71.12 270) (length 5.08)
        (name "DEC6" (effects (font (size 1.27 1.27))))
        (number "E24" (effects (font (size 1.27 1.27))))
      )
      (pin passive line (at 0 -71.12 90) (length 5.08) hide
        (name "VSS" (effects (font (size 1.27 1.27))))
        (number "EP" (effects (font (size 1.27 1.27))))
      )
      (pin bidirectional line (at 33.02 60.96 180) (length 5.08)
        (name "XL2/P0.01" (effects (font (size 1.27 1.27))))
        (number "F2" (effects (font (size 1.27 1.27))))
      )
      (pin power_in line (at 2.54 -71.12 90) (length 5.08)
        (name "VSS_PA" (effects (font (size 1.27 1.27))))
        (number "F23" (effects (font (size 1.27 1.27))))
      )
      (pin bidirectional line (at 33.02 0 180) (length 5.08)
        (name "P0.26" (effects (font (size 1.27 1.27))))
        (number "G1" (effects (font (size 1.27 1.27))))
      )
      (pin bidirectional line (at 33.02 -2.54 180) (length 5.08)
        (name "P0.27" (effects (font (size 1.27 1.27))))
        (number "H2" (effects (font (size 1.27 1.27))))
      )
      (pin passive line (at -33.02 45.72 0) (length 5.08)
        (name "ANT" (effects (font (size 1.27 1.27))))
        (number "H23" (effects (font (size 1.27 1.27))))
      )
      (pin bidirectional line (at 33.02 53.34 180) (length 5.08)
        (name "AIN2/P0.04" (effects (font (size 1.27 1.27))))
        (number "J1" (effects (font (size 1.27 1.27))))
      )
      (pin bidirectional line (at 33.02 38.1 180) (length 5.08)
        (name "NFC2/P0.10" (effects (font (size 1.27 1.27))))
        (number "J24" (effects (font (size 1.27 1.27))))
      )
      (pin bidirectional line (at 33.02 50.8 180) (length 5.08)
        (name "AIN3/P0.05" (effects (font (size 1.27 1.27))))
        (number "K2" (effects (font (size 1.27 1.27))))
      )
      (pin bidirectional line (at 33.02 48.26 180) (length 5.08)
        (name "P0.06" (effects (font (size 1.27 1.27))))
        (number "L1" (effects (font (size 1.27 1.27))))
      )
      (pin bidirectional line (at 33.02 40.64 180) (length 5.08)
        (name "NFC1/P0.09" (effects (font (size 1.27 1.27))))
        (number "L24" (effects (font (size 1.27 1.27))))
      )
      (pin bidirectional line (at 33.02 45.72 180) (length 5.08)
        (name "TRACECLK/P0.07" (effects (font (size 1.27 1.27))))
        (number "M2" (effects (font (size 1.27 1.27))))
      )
      (pin bidirectional line (at 33.02 43.18 180) (length 5.08)
        (name "P0.08" (effects (font (size 1.27 1.27))))
        (number "N1" (effects (font (size 1.27 1.27))))
      )
      (pin passive line (at -10.16 71.12 270) (length 5.08)
        (name "DEC5" (effects (font (size 1.27 1.27))))
        (number "N24" (effects (font (size 1.27 1.27))))
      )
      (pin bidirectional line (at 33.02 -38.1 180) (length 5.08)
        (name "P1.08" (effects (font (size 1.27 1.27))))
        (number "P2" (effects (font (size 1.27 1.27))))
      )
      (pin bidirectional line (at 33.02 -35.56 180) (length 5.08)
        (name "P1.07" (effects (font (size 1.27 1.27))))
        (number "P23" (effects (font (size 1.27 1.27))))
      )
      (pin bidirectional line (at 33.02 -40.64 180) (length 5.08)
        (name "TRACEDATA3/P1.09" (effects (font (size 1.27 1.27))))
        (number "R1" (effects (font (size 1.27 1.27))))
      )
      (pin bidirectional line (at 33.02 -33.02 180) (length 5.08)
        (name "P1.06" (effects (font (size 1.27 1.27))))
        (number "R24" (effects (font (size 1.27 1.27))))
      )
      (pin bidirectional line (at 33.02 35.56 180) (length 5.08)
        (name "TRACEDATA2/P0.11" (effects (font (size 1.27 1.27))))
        (number "T2" (effects (font (size 1.27 1.27))))
      )
      (pin no_connect line (at 27.94 -50.8 180) (length 5.08) hide
        (name "NC" (effects (font (size 1.27 1.27))))
        (number "T23" (effects (font (size 1.27 1.27))))
      )
      (pin bidirectional line (at 33.02 33.02 180) (length 5.08)
        (name "TRACEDATA1/P0.12" (effects (font (size 1.27 1.27))))
        (number "U1" (effects (font (size 1.27 1.27))))
      )
      (pin bidirectional line (at 33.02 -27.94 180) (length 5.08)
        (name "P1.04" (effects (font (size 1.27 1.27))))
        (number "U24" (effects (font (size 1.27 1.27))))
      )
      (pin no_connect line (at 27.94 -53.34 180) (length 5.08) hide
        (name "NC" (effects (font (size 1.27 1.27))))
        (number "V23" (effects (font (size 1.27 1.27))))
      )
      (pin passive line (at 0 71.12 270) (length 5.08) hide
        (name "VDD" (effects (font (size 1.27 1.27))))
        (number "W1" (effects (font (size 1.27 1.27))))
      )
      (pin bidirectional line (at 33.02 -22.86 180) (length 5.08)
        (name "P1.02" (effects (font (size 1.27 1.27))))
        (number "W24" (effects (font (size 1.27 1.27))))
      )
      (pin power_in line (at 2.54 71.12 270) (length 5.08)
        (name "VDDH" (effects (font (size 1.27 1.27))))
        (number "Y2" (effects (font (size 1.27 1.27))))
      )
      (pin bidirectional line (at 33.02 -20.32 180) (length 5.08)
        (name "P1.01" (effects (font (size 1.27 1.27))))
        (number "Y23" (effects (font (size 1.27 1.27))))
      )
    )
  )
  (symbol "nRF52840" (in_bom yes) (on_board yes)
    (property "Reference" "U" (at 0 5.08 0)
      (effects (font (size 1.27 1.27)))
    )
    (property "Value" "nRF52840" (at 0 2.54 0)
      (effects (font (size 1.27 1.27)))
    )
    (property "Footprint" "Package_DFN_QFN:Nordic_AQFN-73-1EP_7x7mm_P0.5mm" (at 0 -73.66 0)
      (effects (font (size 1.27 1.27)) hide)
    )
    (property "Datasheet" "http://infocenter.nordicsemi.com/topic/com.nordic.infocenter.nrf52/dita/nrf52/chips/nrf52840.html" (at -16.51 48.26 0)
      (effects (font (size 1.27 1.27)) hide)
    )
    (property "ki_keywords" "MCU ARM BLE ANT 2.4GHz 802.15.4" (at 0 0 0)
      (effects (font (size 1.27 1.27)) hide)
    )
    (property "ki_description" "Multiprotocol BLE/ANT/2.4 GHz/802.15.4 Cortex-M4F SoC, AQFN-73" (at 0 0 0)
      (effects (font (size 1.27 1.27)) hide)
    )
    (property "ki_fp_filters" "Nordic*AQFN*1EP*7x7mm*P0.5mm*" (at 0 0 0)
      (effects (font (size 1.27 1.27)) hide)
    )
    (symbol "nRF52840_0_1"
      (rectangle (start -27.94 66.04) (end 27.94 -66.04)
        (stroke (width 0.254) (type default))
        (fill (type background))
      )
    )
    (symbol "nRF52840_1_1"
      (pin bidirectional line (at 33.02 -7.62 180) (length 5.08)
        (name "AIN5/P0.29" (effects (font (size 1.27 1.27))))
        (number "A10" (effects (font (size 1.27 1.27))))
      )
      (pin bidirectional line (at 33.02 58.42 180) (length 5.08)
        (name "AIN0/P0.02" (effects (font (size 1.27 1.27))))
        (number "A12" (effects (font (size 1.27 1.27))))
      )
      (pin bidirectional line (at 33.02 -55.88 180) (length 5.08)
        (name "P1.15" (effects (font (size 1.27 1.27))))
        (number "A14" (effects (font (size 1.27 1.27))))
      )
      (pin bidirectional line (at 33.02 -50.8 180) (length 5.08)
        (name "P1.13" (effects (font (size 1.27 1.27))))
        (number "A16" (effects (font (size 1.27 1.27))))
      )
      (pin passive line (at -17.78 71.12 270) (length 5.08)
        (name "DEC2" (effects (font (size 1.27 1.27))))
        (number "A18" (effects (font (size 1.27 1.27))))
      )
      (pin bidirectional line (at 33.02 -43.18 180) (length 5.08)
        (name "P1.10" (effects (font (size 1.27 1.27))))
        (number "A20" (effects (font (size 1.27 1.27))))
      )
      (pin passive line (at 0 71.12 270) (length 5.08) hide
        (name "VDD" (effects (font (size 1.27 1.27))))
        (number "A22" (effects (font (size 1.27 1.27))))
      )
      (pin input line (at -33.02 -5.08 0) (length 5.08)
        (name "XC2" (effects (font (size 1.27 1.27))))
        (number "A23" (effects (font (size 1.27 1.27))))
      )
      (pin bidirectional line (at 33.02 -12.7 180) (length 5.08)
        (name "AIN7/P0.31" (effects (font (size 1.27 1.27))))
        (number "A8" (effects (font (size 1.27 1.27))))
      )
      (pin input line (at -33.02 -45.72 0) (length 5.08)
        (name "SWDCLK" (effects (font (size 1.27 1.27))))
        (number "AA24" (effects (font (size 1.27 1.27))))
      )
      (pin power_out line (at 12.7 71.12 270) (length 5.08)
        (name "DCCH" (effects (font (size 1.27 1.27))))
        (number "AB2" (effects (font (size 1.27 1.27))))
      )
      (pin bidirectional line (at 33.02 22.86 180) (length 5.08)
        (name "P0.16" (effects (font (size 1.27 1.27))))
        (number "AC11" (effects (font (size 1.27 1.27))))
      )
      (pin bidirectional line (at -33.02 -43.18 0) (length 5.08)
        (name "P0.18/~{RESET}" (effects (font (size 1.27 1.27))))
        (number "AC13" (effects (font (size 1.27 1.27))))
      )
      (pin bidirectional line (at 33.02 17.78 180) (length 5.08)
        (name "P0.19" (effects (font (size 1.27 1.27))))
        (number "AC15" (effects (font (size 1.27 1.27))))
      )
      (pin bidirectional line (at 33.02 12.7 180) (length 5.08)
        (name "P0.21" (effects (font (size 1.27 1.27))))
        (number "AC17" (effects (font (size 1.27 1.27))))
      )
      (pin bidirectional line (at 33.02 7.62 180) (length 5.08)
        (name "P0.23" (effects (font (size 1.27 1.27))))
        (number "AC19" (effects (font (size 1.27 1.27))))
      )
      (pin bidirectional line (at 33.02 2.54 180) (length 5.08)
        (name "P0.25" (effects (font (size 1.27 1.27))))
        (number "AC21" (effects (font (size 1.27 1.27))))
      )
      (pin bidirectional line (at -33.02 -48.26 0) (length 5.08)
        (name "SWDIO" (effects (font (size 1.27 1.27))))
        (number "AC24" (effects (font (size 1.27 1.27))))
      )
      (pin passive line (at -5.08 71.12 270) (length 5.08)
        (name "DECUSB" (effects (font (size 1.27 1.27))))
        (number "AC5" (effects (font (size 1.27 1.27))))
      )
      (pin bidirectional line (at 33.02 27.94 180) (length 5.08)
        (name "P0.14" (effects (font (size 1.27 1.27))))
        (number "AC9" (effects (font (size 1.27 1.27))))
      )
      (pin bidirectional line (at 33.02 25.4 180) (length 5.08)
        (name "P0.15" (effects (font (size 1.27 1.27))))
        (number "AD10" (effects (font (size 1.27 1.27))))
      )
      (pin bidirectional line (at 33.02 20.32 180) (length 5.08)
        (name "P0.17" (effects (font (size 1.27 1.27))))
        (number "AD12" (effects (font (size 1.27 1.27))))
      )
      (pin passive line (at 0 71.12 270) (length 5.08) hide
        (name "VDD" (effects (font (size 1.27 1.27))))
        (number "AD14" (effects (font (size 1.27 1.27))))
      )
      (pin bidirectional line (at 33.02 15.24 180) (length 5.08)
        (name "P0.20" (effects (font (size 1.27 1.27))))
        (number "AD16" (effects (font (size 1.27 1.27))))
      )
      (pin bidirectional line (at 33.02 10.16 180) (length 5.08)
        (name "P0.22" (effects (font (size 1.27 1.27))))
        (number "AD18" (effects (font (size 1.27 1.27))))
      )
      (pin power_in line (at 5.08 71.12 270) (length 5.08)
        (name "VBUS" (effects (font (size 1.27 1.27))))
        (number "AD2" (effects (font (size 1.27 1.27))))
      )
      (pin bidirectional line (at 33.02 5.08 180) (length 5.08)
        (name "P0.24" (effects (font (size 1.27 1.27))))
        (number "AD20" (effects (font (size 1.27 1.27))))
      )
      (pin bidirectional line (at 33.02 -17.78 180) (length 5.08)
        (name "TRACEDATA0/P1.00" (effects (font (size 1.27 1.27))))
        (number "AD22" (effects (font (size 1.27 1.27))))
      )
      (pin passive line (at 0 71.12 270) (length 5.08) hide
        (name "VDD" (effects (font (size 1.27 1.27))))
        (number "AD23" (effects (font (size 1.27 1.27))))
      )
      (pin bidirectional line (at 33.02 -60.96 180) (length 5.08)
        (name "D-" (effects (font (size 1.27 1.27))))
        (number "AD4" (effects (font (size 1.27 1.27))))
      )
      (pin bidirectional line (at 33.02 -63.5 180) (length 5.08)
        (name "D+" (effects (font (size 1.27 1.27))))
        (number "AD6" (effects (font (size 1.27 1.27))))
      )
      (pin bidirectional line (at 33.02 30.48 180) (length 5.08)
        (name "P0.13" (effects (font (size 1.27 1.27))))
        (number "AD8" (effects (font (size 1.27 1.27))))
      )
      (pin power_in line (at 0 71.12 270) (length 5.08)
        (name "VDD" (effects (font (size 1.27 1.27))))
        (number "B1" (effects (font (size 1.27 1.27))))
      )
      (pin bidirectional line (at 33.02 -5.08 180) (length 5.08)
        (name "AIN4/P0.28" (effects (font (size 1.27 1.27))))
        (number "B11" (effects (font (size 1.27 1.27))))
      )
      (pin bidirectional line (at 33.02 55.88 180) (length 5.08)
        (name "AIN1/P0.03" (effects (font (size 1.27 1.27))))
        (number "B13" (effects (font (size 1.27 1.27))))
      )
      (pin bidirectional line (at 33.02 -53.34 180) (length 5.08)
        (name "P1.14" (effects (font (size 1.27 1.27))))
        (number "B15" (effects (font (size 1.27 1.27))))
      )
      (pin bidirectional line (at 33.02 -48.26 180) (length 5.08)
        (name "P1.12" (effects (font (size 1.27 1.27))))
        (number "B17" (effects (font (size 1.27 1.27))))
      )
      (pin bidirectional line (at 33.02 -45.72 180) (length 5.08)
        (name "P1.11" (effects (font (size 1.27 1.27))))
        (number "B19" (effects (font (size 1.27 1.27))))
      )
      (pin input line (at -33.02 5.08 0) (length 5.08)
        (name "XC1" (effects (font (size 1.27 1.27))))
        (number "B24" (effects (font (size 1.27 1.27))))
      )
      (pin power_out line (at 10.16 71.12 270) (length 5.08)
        (name "DCC" (effects (font (size 1.27 1.27))))
        (number "B3" (effects (font (size 1.27 1.27))))
      )
      (pin passive line (at -12.7 71.12 270) (length 5.08)
        (name "DEC4" (effects (font (size 1.27 1.27))))
        (number "B5" (effects (font (size 1.27 1.27))))
      )
      (pin power_in line (at 0 -71.12 90) (length 5.08)
        (name "VSS" (effects (font (size 1.27 1.27))))
        (number "B7" (effects (font (size 1.27 1.27))))
      )
      (pin bidirectional line (at 33.02 -10.16 180) (length 5.08)
        (name "AIN6/P0.30" (effects (font (size 1.27 1.27))))
        (number "B9" (effects (font (size 1.27 1.27))))
      )
      (pin passive line (at -20.32 71.12 270) (length 5.08)
        (name "DEC1" (effects (font (size 1.27 1.27))))
        (number "C1" (effects (font (size 1.27 1.27))))
      )
      (pin bidirectional line (at 33.02 63.5 180) (length 5.08)
        (name "XL1/P0.00" (effects (font (size 1.27 1.27))))
        (number "D2" (effects (font (size 1.27 1.27))))
      )
      (pin passive line (at -15.24 71.12 270) (length 5.08)
        (name "DEC3" (effects (font (size 1.27 1.27))))
        (number "D23" (effects (font (size 1.27 1.27))))
      )
      (pin passive line (at -7.62 71.12 270) (length 5.08)
        (name "DEC6" (effects (font (size 1.27 1.27))))
        (number "E24" (effects (font (size 1.27 1.27))))
      )
      (pin passive line (at 0 -71.12 90) (length 5.08) hide
        (name "VSS" (effects (font (size 1.27 1.27))))
        (number "EP" (effects (font (size 1.27 1.27))))
      )
      (pin bidirectional line (at 33.02 60.96 180) (length 5.08)
        (name "XL2/P0.01" (effects (font (size 1.27 1.27))))
        (number "F2" (effects (font (size 1.27 1.27))))
      )
      (pin power_in line (at 2.54 -71.12 90) (length 5.08)
        (name "VSS_PA" (effects (font (size 1.27 1.27))))
        (number "F23" (effects (font (size 1.27 1.27))))
      )
      (pin bidirectional line (at 33.02 0 180) (length 5.08)
        (name "P0.26" (effects (font (size 1.27 1.27))))
        (number "G1" (effects (font (size 1.27 1.27))))
      )
      (pin bidirectional line (at 33.02 -2.54 180) (length 5.08)
        (name "P0.27" (effects (font (size 1.27 1.27))))
        (number "H2" (effects (font (size 1.27 1.27))))
      )
      (pin passive line (at -33.02 45.72 0) (length 5.08)
        (name "ANT" (effects (font (size 1.27 1.27))))
        (number "H23" (effects (font (size 1.27 1.27))))
      )
      (pin bidirectional line (at 33.02 53.34 180) (length 5.08)
        (name "AIN2/P0.04" (effects (font (size 1.27 1.27))))
        (number "J1" (effects (font (size 1.27 1.27))))
      )
      (pin bidirectional line (at 33.02 38.1 180) (length 5.08)
        (name "NFC2/P0.10" (effects (font (size 1.27 1.27))))
        (number "J24" (effects (font (size 1.27 1.27))))
      )
      (pin bidirectional line (at 33.02 50.8 180) (length 5.08)
        (name "AIN3/P0.05" (effects (font (size 1.27 1.27))))
        (number "K2" (effects (font (size 1.27 1.27))))
      )
      (pin bidirectional line (at 33.02 48.26 180) (length 5.08)
        (name "P0.06" (effects (font (size 1.27 1.27))))
        (number "L1" (effects (font (size 1.27 1.27))))
      )
      (pin bidirectional line (at 33.02 40.64 180) (length 5.08)
        (name "NFC1/P0.09" (effects (font (size 1.27 1.27))))
        (number "L24" (effects (font (size 1.27 1.27))))
      )
      (pin bidirectional line (at 33.02 45.72 180) (length 5.08)
        (name "TRACECLK/P0.07" (effects (font (size 1.27 1.27))))
        (number "M2" (effects (font (size 1.27 1.27))))
      )
      (pin bidirectional line (at 33.02 43.18 180) (length 5.08)
        (name "P0.08" (effects (font (size 1.27 1.27))))
        (number "N1" (effects (font (size 1.27 1.27))))
      )
      (pin passive line (at -10.16 71.12 270) (length 5.08)
        (name "DEC5" (effects (font (size 1.27 1.27))))
        (number "N24" (effects (font (size 1.27 1.27))))
      )
      (pin bidirectional line (at 33.02 -38.1 180) (length 5.08)
        (name "P1.08" (effects (font (size 1.27 1.27))))
        (number "P2" (effects (font (size 1.27 1.27))))
      )
      (pin bidirectional line (at 33.02 -35.56 180) (length 5.08)
        (name "P1.07" (effects (font (size 1.27 1.27))))
        (number "P23" (effects (font (size 1.27 1.27))))
      )
      (pin bidirectional line (at 33.02 -40.64 180) (length 5.08)
        (name "TRACEDATA3/P1.09" (effects (font (size 1.27 1.27))))
        (number "R1" (effects (font (size 1.27 1.27))))
      )
      (pin bidirectional line (at 33.02 -33.02 180) (length 5.08)
        (name "P1.06" (effects (font (size 1.27 1.27))))
        (number "R24" (effects (font (size 1.27 1.27))))
      )
      (pin bidirectional line (at 33.02 35.56 180) (length 5.08)
        (name "TRACEDATA2/P0.11" (effects (font (size 1.27 1.27))))
        (number "T2" (effects (font (size 1.27 1.27))))
      )
      (pin bidirectional line (at 33.02 -30.48 180) (length 5.08)
        (name "P1.05" (effects (font (size 1.27 1.27))))
        (number "T23" (effects (font (size 1.27 1.27))))
      )
      (pin bidirectional line (at 33.02 33.02 180) (length 5.08)
        (name "TRACEDATA1/P0.12" (effects (font (size 1.27 1.27))))
        (number "U1" (effects (font (size 1.27 1.27))))
      )
      (pin bidirectional line (at 33.02 -27.94 180) (length 5.08)
        (name "P1.04" (effects (font (size 1.27 1.27))))
        (number "U24" (effects (font (size 1.27 1.27))))
      )
      (pin bidirectional line (at 33.02 -25.4 180) (length 5.08)
        (name "P1.03" (effects (font (size 1.27 1.27))))
        (number "V23" (effects (font (size 1.27 1.27))))
      )
      (pin passive line (at 0 71.12 270) (length 5.08) hide
        (name "VDD" (effects (font (size 1.27 1.27))))
        (number "W1" (effects (font (size 1.27 1.27))))
      )
      (pin bidirectional line (at 33.02 -22.86 180) (length 5.08)
        (name "P1.02" (effects (font (size 1.27 1.27))))
        (number "W24" (effects (font (size 1.27 1.27))))
      )
      (pin power_in line (at 2.54 71.12 270) (length 5.08)
        (name "VDDH" (effects (font (size 1.27 1.27))))
        (number "Y2" (effects (font (size 1.27 1.27))))
      )
      (pin bidirectional line (at 33.02 -20.32 180) (length 5.08)
        (name "P1.01" (effects (font (size 1.27 1.27))))
        (number "Y23" (effects (font (size 1.27 1.27))))
      )
    )
  )
)
